<?xml version="1.0" encoding="UTF-8" standalone="no"?>
<svg
   xmlns:dc="http://purl.org/dc/elements/1.1/"
   xmlns:cc="http://creativecommons.org/ns#"
   xmlns:rdf="http://www.w3.org/1999/02/22-rdf-syntax-ns#"
   xmlns:svg="http://www.w3.org/2000/svg"
   xmlns="http://www.w3.org/2000/svg"
   xmlns:sodipodi="http://sodipodi.sourceforge.net/DTD/sodipodi-0.dtd"
   xmlns:inkscape="http://www.inkscape.org/namespaces/inkscape"
   sodipodi:docname="darktimers.svg"
   inkscape:version="0.92.3 (2405546, 2018-03-11)"
   id="svg9631"
   version="1.1"
   viewBox="0 0 210 297"
   height="297mm"
   width="210mm">
  <defs
     id="defs9625">
    <rect
       id="rect11649"
       height="13.798669"
       width="113.93874"
       y="119.22242"
       x="47.859805" />
  </defs>
  <sodipodi:namedview
     inkscape:window-maximized="1"
     inkscape:window-y="-8"
     inkscape:window-x="-8"
     inkscape:window-height="1017"
     inkscape:window-width="1646"
     inkscape:guide-bbox="true"
     showguides="true"
     showgrid="false"
     inkscape:document-rotation="0"
     inkscape:current-layer="layer1"
     inkscape:document-units="mm"
     inkscape:cy="944.54485"
     inkscape:cx="437.95848"
     inkscape:zoom="0.98994949"
     inkscape:pageshadow="2"
     inkscape:pageopacity="0.0"
     borderopacity="1.0"
     bordercolor="#666666"
     pagecolor="#ffffff"
     id="base" />
  <metadata
     id="metadata9628">
    <rdf:RDF>
      <cc:Work
         rdf:about="">
        <dc:format>image/svg+xml</dc:format>
        <dc:type
           rdf:resource="http://purl.org/dc/dcmitype/StillImage" />
        <dc:title />
      </cc:Work>
    </rdf:RDF>
  </metadata>
  <g
     id="layer1"
     inkscape:groupmode="layer"
     inkscape:label="Layer 1">
    <rect
       y="0.13915348"
       x="-0.20260951"
       height="135.43851"
       width="210.17044"
       id="rect10232"
       style="fill:#000000;stroke:none;stroke-width:8.47029972;stroke-linecap:round;stroke-miterlimit:4;stroke-dasharray:none;stroke-opacity:1" />
    <polygon
       points="2,16 1,17 0,16 0,10 1,9 2,10 "
       id="e-80-45"
       transform="matrix(1.0470698,0,0,1.0470698,182.87946,114.85596)"
       style="fill:#ff0000;fill-opacity:0.21277101;fill-rule:evenodd;stroke:#000000;stroke-width:0.25;stroke-linecap:butt;stroke-linejoin:miter;stroke-opacity:1" />
    <polygon
       style="fill:#ff0000;fill-opacity:0.21277101;fill-rule:evenodd;stroke:#000000;stroke-width:0.25;stroke-linecap:butt;stroke-linejoin:miter;stroke-opacity:1"
       points="2,2 1,1 2,0 8,0 9,1 8,2 "
       id="a-0-56"
       transform="matrix(1.0470698,0,0,1.0470698,152.54408,93.218371)" />
    <polygon
       points="2,8 1,9 0,8 0,2 1,1 2,2 "
       id="f-91-7"
       transform="matrix(1.0470698,0,0,1.0470698,137.51017,48.475441)"
       style="fill:#ff0000;fill-opacity:0.21277101;fill-rule:evenodd;stroke:#000000;stroke-width:0.25;stroke-linecap:butt;stroke-linejoin:miter;stroke-opacity:1" />
    <polygon
       points="2,10 1,9 2,8 8,8 9,9 8,10 "
       id="g-6-3"
       transform="matrix(1.0470698,0,0,1.0470698,137.51017,48.475441)"
       style="fill:#ff0000;fill-opacity:0.21277101;fill-rule:evenodd;stroke:#000000;stroke-width:0.25;stroke-linecap:butt;stroke-linejoin:miter;stroke-opacity:1" />
    <polygon
       points="2,10 1,9 2,8 8,8 9,9 8,10 "
       id="g-6-21"
       transform="matrix(1.0470698,0,0,1.0470698,137.51017,71.059521)"
       style="fill:#ff0000;fill-opacity:0.21277101;fill-rule:evenodd;stroke:#000000;stroke-width:0.25;stroke-linecap:butt;stroke-linejoin:miter;stroke-opacity:1" />
    <polygon
       style="fill:#ff0000;fill-opacity:0.21277101;fill-rule:evenodd;stroke:#000000;stroke-width:0.25;stroke-linecap:butt;stroke-linejoin:miter;stroke-opacity:1"
       points="2,2 1,1 2,0 8,0 9,1 8,2 "
       id="a-0-9"
       transform="matrix(1.0470698,0,0,1.0470698,137.51017,71.059521)" />
    <polygon
       points="8,16 9,17 8,18 2,18 1,17 2,16 "
       id="d-39-94"
       transform="matrix(1.0470698,0,0,1.0470698,137.51017,71.059521)"
       style="fill:#ff0000;fill-opacity:0.21277101;fill-rule:evenodd;stroke:#000000;stroke-width:0.25;stroke-linecap:butt;stroke-linejoin:miter;stroke-opacity:1" />
    <polygon
       style="fill:#ff0000;fill-opacity:0.21277101;fill-rule:evenodd;stroke:#000000;stroke-width:0.25;stroke-linecap:butt;stroke-linejoin:miter;stroke-opacity:1"
       points="8,2 9,1 10,2 10,8 9,9 8,8 "
       id="b-18-09"
       transform="matrix(1.0470698,0,0,1.0470698,152.54408,93.218371)" />
    <polygon
       points="2,16 1,17 0,16 0,10 1,9 2,10 "
       id="e-80-81"
       transform="matrix(1.0470698,0,0,1.0470698,167.44436,93.218371)"
       style="fill:#ff0000;fill-opacity:0.21277101;fill-rule:evenodd;stroke:#000000;stroke-width:0.25;stroke-linecap:butt;stroke-linejoin:miter;stroke-opacity:1" />
    <polygon
       points="8,16 9,17 8,18 2,18 1,17 2,16 "
       id="d-39-427"
       transform="matrix(1.0470698,0,0,1.0470698,167.44436,93.218371)"
       style="fill:#ff0000;fill-opacity:0.21277101;fill-rule:evenodd;stroke:#000000;stroke-width:0.25;stroke-linecap:butt;stroke-linejoin:miter;stroke-opacity:1" />
    <polygon
       points="9,17 8,18 2,18 1,17 2,16 8,16 "
       id="d-39-7"
       transform="matrix(1.0470698,0,0,1.0470698,152.54408,25.056511)"
       style="fill:#ff0000;fill-opacity:0.21277101;fill-rule:evenodd;stroke:#000000;stroke-width:0.25;stroke-linecap:butt;stroke-linejoin:miter;stroke-opacity:1" />
    <polygon
       points="8,16 9,17 8,18 2,18 1,17 2,16 "
       id="d-39-8"
       transform="matrix(1.0470698,0,0,1.0470698,167.44436,25.056511)"
       style="fill:#ff0000;fill-opacity:0.21277101;fill-rule:evenodd;stroke:#000000;stroke-width:0.25;stroke-linecap:butt;stroke-linejoin:miter;stroke-opacity:1" />
    <polygon
       points="8,16 9,17 8,18 2,18 1,17 2,16 "
       id="d-39-75"
       transform="matrix(1.0470698,0,0,1.0470698,197.57899,25.056511)"
       style="fill:#ff0000;fill-opacity:0.21277101;fill-rule:evenodd;stroke:#000000;stroke-width:0.25;stroke-linecap:butt;stroke-linejoin:miter;stroke-opacity:1" />
    <polygon
       style="fill:#ff0000;fill-opacity:0.21277101;fill-rule:evenodd;stroke:#000000;stroke-width:0.25;stroke-linecap:butt;stroke-linejoin:miter;stroke-opacity:1"
       points="8,2 9,1 10,2 10,8 9,9 8,8 "
       id="b-18-93"
       transform="matrix(1.0470698,0,0,1.0470698,137.51017,48.475441)" />
    <polygon
       points="8,10 9,9 10,10 10,16 9,17 8,16 "
       id="c-3-08"
       transform="matrix(1.0470698,0,0,1.0470698,137.51017,48.475441)"
       style="fill:#ff0000;fill-opacity:0.21277101;fill-rule:evenodd;stroke:#000000;stroke-width:0.25;stroke-linecap:butt;stroke-linejoin:miter;stroke-opacity:1" />
    <polygon
       style="fill:#ff0000;fill-opacity:0.21277101;fill-rule:evenodd;stroke:#000000;stroke-width:0.25;stroke-linecap:butt;stroke-linejoin:miter;stroke-opacity:1"
       points="2,2 1,1 2,0 8,0 9,1 8,2 "
       id="a-0-90"
       transform="matrix(1.0470698,0,0,1.0470698,152.54408,48.475441)" />
    <polygon
       style="fill:#ff0000;fill-opacity:0.21277101;fill-rule:evenodd;stroke:#000000;stroke-width:0.25;stroke-linecap:butt;stroke-linejoin:miter;stroke-opacity:1"
       points="8,2 9,1 10,2 10,8 9,9 8,8 "
       id="b-18-03"
       transform="matrix(1.0470698,0,0,1.0470698,152.54408,48.475441)" />
    <polygon
       points="8,10 9,9 10,10 10,16 9,17 8,16 "
       id="c-3-81"
       transform="matrix(1.0470698,0,0,1.0470698,152.54408,48.475441)"
       style="fill:#ff0000;fill-opacity:0.21277101;fill-rule:evenodd;stroke:#000000;stroke-width:0.25;stroke-linecap:butt;stroke-linejoin:miter;stroke-opacity:1" />
    <polygon
       points="8,16 9,17 8,18 2,18 1,17 2,16 "
       id="d-39-39"
       transform="matrix(1.0470698,0,0,1.0470698,152.54408,48.475441)"
       style="fill:#ff0000;fill-opacity:0.21277101;fill-rule:evenodd;stroke:#000000;stroke-width:0.25;stroke-linecap:butt;stroke-linejoin:miter;stroke-opacity:1" />
    <polygon
       points="2,16 1,17 0,16 0,10 1,9 2,10 "
       id="e-80-8"
       transform="matrix(1.0470698,0,0,1.0470698,152.54408,48.475441)"
       style="fill:#ff0000;fill-opacity:0.21277101;fill-rule:evenodd;stroke:#000000;stroke-width:0.25;stroke-linecap:butt;stroke-linejoin:miter;stroke-opacity:1" />
    <polygon
       points="2,8 1,9 0,8 0,2 1,1 2,2 "
       id="f-91-76"
       transform="matrix(1.0470698,0,0,1.0470698,152.54408,48.475441)"
       style="fill:#ff0000;fill-opacity:0.21277101;fill-rule:evenodd;stroke:#000000;stroke-width:0.25;stroke-linecap:butt;stroke-linejoin:miter;stroke-opacity:1" />
    <polygon
       style="fill:#ff0000;fill-opacity:0.21277101;fill-rule:evenodd;stroke:#000000;stroke-width:0.25;stroke-linecap:butt;stroke-linejoin:miter;stroke-opacity:1"
       points="2,2 1,1 2,0 8,0 9,1 8,2 "
       id="a-0-89"
       transform="matrix(1.0470698,0,0,1.0470698,167.44436,48.475441)" />
    <polygon
       style="fill:#ff0000;fill-opacity:0.21277101;fill-rule:evenodd;stroke:#000000;stroke-width:0.25;stroke-linecap:butt;stroke-linejoin:miter;stroke-opacity:1"
       points="8,2 9,1 10,2 10,8 9,9 8,8 "
       id="b-18-655"
       transform="matrix(1.0470698,0,0,1.0470698,167.44436,48.475441)" />
    <polygon
       points="8,10 9,9 10,10 10,16 9,17 8,16 "
       id="c-3-35"
       transform="matrix(1.0470698,0,0,1.0470698,167.44436,48.475441)"
       style="fill:#ff0000;fill-opacity:0.21277101;fill-rule:evenodd;stroke:#000000;stroke-width:0.25;stroke-linecap:butt;stroke-linejoin:miter;stroke-opacity:1" />
    <polygon
       style="fill:#ff0000;fill-opacity:0.21277101;fill-rule:evenodd;stroke:#000000;stroke-width:0.25;stroke-linecap:butt;stroke-linejoin:miter;stroke-opacity:1"
       points="2,2 1,1 2,0 8,0 9,1 8,2 "
       id="a-0-39"
       transform="matrix(1.0470698,0,0,1.0470698,182.54508,48.507042)" />
    <polygon
       style="fill:#ff0000;fill-opacity:0.21277101;fill-rule:evenodd;stroke:#000000;stroke-width:0.25;stroke-linecap:butt;stroke-linejoin:miter;stroke-opacity:1"
       points="8,2 9,1 10,2 10,8 9,9 8,8 "
       id="b-18-54"
       transform="matrix(1.0470698,0,0,1.0470698,182.54508,48.507042)" />
    <polygon
       points="8,10 9,9 10,10 10,16 9,17 8,16 "
       id="c-3-98"
       transform="matrix(1.0470698,0,0,1.0470698,182.54508,48.507042)"
       style="fill:#ff0000;fill-opacity:0.21277101;fill-rule:evenodd;stroke:#000000;stroke-width:0.25;stroke-linecap:butt;stroke-linejoin:miter;stroke-opacity:1" />
    <polygon
       points="8,16 9,17 8,18 2,18 1,17 2,16 "
       id="d-39-42"
       transform="matrix(1.0470698,0,0,1.0470698,182.54508,48.507042)"
       style="fill:#ff0000;fill-opacity:0.21277101;fill-rule:evenodd;stroke:#000000;stroke-width:0.25;stroke-linecap:butt;stroke-linejoin:miter;stroke-opacity:1" />
    <polygon
       points="2,10 1,9 2,8 8,8 9,9 8,10 "
       id="g-6-12"
       transform="matrix(1.0470698,0,0,1.0470698,182.54508,48.507042)"
       style="fill:#ff0000;fill-opacity:0.21277101;fill-rule:evenodd;stroke:#000000;stroke-width:0.25;stroke-linecap:butt;stroke-linejoin:miter;stroke-opacity:1" />
    <polygon
       style="fill:#ff0000;fill-opacity:0.21277101;fill-rule:evenodd;stroke:#000000;stroke-width:0.25;stroke-linecap:butt;stroke-linejoin:miter;stroke-opacity:1"
       points="8,2 9,1 10,2 10,8 9,9 8,8 "
       id="b-18-60"
       transform="matrix(1.0470698,0,0,1.0470698,197.57899,48.475441)" />
    <polygon
       points="8,10 9,9 10,10 10,16 9,17 8,16 "
       id="c-3-83"
       transform="matrix(1.0470698,0,0,1.0470698,197.57899,48.475441)"
       style="fill:#ff0000;fill-opacity:0.21277101;fill-rule:evenodd;stroke:#000000;stroke-width:0.25;stroke-linecap:butt;stroke-linejoin:miter;stroke-opacity:1" />
    <polygon
       style="fill:#ff0000;fill-opacity:0.21277101;fill-rule:evenodd;stroke:#000000;stroke-width:0.25;stroke-linecap:butt;stroke-linejoin:miter;stroke-opacity:1"
       points="8,2 9,1 10,2 10,8 9,9 8,8 "
       id="b-18-71"
       transform="matrix(1.0470698,0,0,1.0470698,137.51017,71.059521)" />
    <polygon
       points="8,10 9,9 10,10 10,16 9,17 8,16 "
       id="c-3-7"
       transform="matrix(1.0470698,0,0,1.0470698,137.51017,71.059521)"
       style="fill:#ff0000;fill-opacity:0.21277101;fill-rule:evenodd;stroke:#000000;stroke-width:0.25;stroke-linecap:butt;stroke-linejoin:miter;stroke-opacity:1" />
    <polygon
       style="fill:#ff0000;fill-opacity:0.21277101;fill-rule:evenodd;stroke:#000000;stroke-width:0.25;stroke-linecap:butt;stroke-linejoin:miter;stroke-opacity:1"
       points="2,2 1,1 2,0 8,0 9,1 8,2 "
       id="a-0-5"
       transform="matrix(1.0470698,0,0,1.0470698,152.54408,71.059521)" />
    <polygon
       points="8,10 9,9 10,10 10,16 9,17 8,16 "
       id="c-3-72"
       transform="matrix(1.0470698,0,0,1.0470698,152.54408,71.059521)"
       style="fill:#ff0000;fill-opacity:0.21277101;fill-rule:evenodd;stroke:#000000;stroke-width:0.25;stroke-linecap:butt;stroke-linejoin:miter;stroke-opacity:1" />
    <polygon
       points="8,16 9,17 8,18 2,18 1,17 2,16 "
       id="d-39-6"
       transform="matrix(1.0470698,0,0,1.0470698,152.54408,71.059521)"
       style="fill:#ff0000;fill-opacity:0.21277101;fill-rule:evenodd;stroke:#000000;stroke-width:0.25;stroke-linecap:butt;stroke-linejoin:miter;stroke-opacity:1" />
    <polygon
       points="2,16 1,17 0,16 0,10 1,9 2,10 "
       id="e-80-66"
       transform="matrix(1.0470698,0,0,1.0470698,152.54408,71.059521)"
       style="fill:#ff0000;fill-opacity:0.21277101;fill-rule:evenodd;stroke:#000000;stroke-width:0.25;stroke-linecap:butt;stroke-linejoin:miter;stroke-opacity:1" />
    <polygon
       points="2,8 1,9 0,8 0,2 1,1 2,2 "
       id="f-91-0022"
       transform="matrix(1.0470698,0,0,1.0470698,152.54408,71.059521)"
       style="fill:#ff0000;fill-opacity:0.21277101;fill-rule:evenodd;stroke:#000000;stroke-width:0.25;stroke-linecap:butt;stroke-linejoin:miter;stroke-opacity:1" />
    <polygon
       points="2,10 1,9 2,8 8,8 9,9 8,10 "
       id="g-6-42"
       transform="matrix(1.0470698,0,0,1.0470698,152.54408,71.059521)"
       style="fill:#ff0000;fill-opacity:0.21277101;fill-rule:evenodd;stroke:#000000;stroke-width:0.25;stroke-linecap:butt;stroke-linejoin:miter;stroke-opacity:1" />
    <polygon
       style="fill:#ff0000;fill-opacity:0.21277101;fill-rule:evenodd;stroke:#000000;stroke-width:0.25;stroke-linecap:butt;stroke-linejoin:miter;stroke-opacity:1"
       points="2,2 1,1 2,0 8,0 9,1 8,2 "
       id="a-0-11"
       transform="matrix(1.0470698,0,0,1.0470698,167.44436,71.059521)" />
    <polygon
       style="fill:#ff0000;fill-opacity:0.21277101;fill-rule:evenodd;stroke:#000000;stroke-width:0.25;stroke-linecap:butt;stroke-linejoin:miter;stroke-opacity:1"
       points="8,2 9,1 10,2 10,8 9,9 8,8 "
       id="b-18-31"
       transform="matrix(1.0470698,0,0,1.0470698,167.44436,71.059521)" />
    <polygon
       points="2,16 1,17 0,16 0,10 1,9 2,10 "
       id="e-80-52"
       transform="matrix(1.0470698,0,0,1.0470698,167.44436,71.059521)"
       style="fill:#ff0000;fill-opacity:0.21277101;fill-rule:evenodd;stroke:#000000;stroke-width:0.25;stroke-linecap:butt;stroke-linejoin:miter;stroke-opacity:1" />
    <polygon
       points="2,8 1,9 0,8 0,2 1,1 2,2 "
       id="f-91-86"
       transform="matrix(1.0470698,0,0,1.0470698,167.44436,71.059521)"
       style="fill:#ff0000;fill-opacity:0.21277101;fill-rule:evenodd;stroke:#000000;stroke-width:0.25;stroke-linecap:butt;stroke-linejoin:miter;stroke-opacity:1" />
    <polygon
       points="2,10 1,9 2,8 8,8 9,9 8,10 "
       id="g-6-78"
       transform="matrix(1.0470698,0,0,1.0470698,167.44436,71.059521)"
       style="fill:#ff0000;fill-opacity:0.21277101;fill-rule:evenodd;stroke:#000000;stroke-width:0.25;stroke-linecap:butt;stroke-linejoin:miter;stroke-opacity:1" />
    <polygon
       style="fill:#ff0000;fill-opacity:0.21277101;fill-rule:evenodd;stroke:#000000;stroke-width:0.25;stroke-linecap:butt;stroke-linejoin:miter;stroke-opacity:1"
       points="8,2 9,1 10,2 10,8 9,9 8,8 "
       id="b-18-08"
       transform="matrix(1.0470698,0,0,1.0470698,182.54508,71.059521)" />
    <polygon
       points="8,10 9,9 10,10 10,16 9,17 8,16 "
       id="c-3-76"
       transform="matrix(1.0470698,0,0,1.0470698,182.54508,71.059521)"
       style="fill:#ff0000;fill-opacity:0.21277101;fill-rule:evenodd;stroke:#000000;stroke-width:0.25;stroke-linecap:butt;stroke-linejoin:miter;stroke-opacity:1" />
    <polygon
       style="fill:#ff0000;fill-opacity:0.21277101;fill-rule:evenodd;stroke:#000000;stroke-width:0.25;stroke-linecap:butt;stroke-linejoin:miter;stroke-opacity:1"
       points="8,2 9,1 10,2 10,8 9,9 8,8 "
       id="b-18-627"
       transform="matrix(1.0470698,0,0,1.0470698,197.57899,71.059521)" />
    <polygon
       points="8,10 9,9 10,10 10,16 9,17 8,16 "
       id="c-3-78"
       transform="matrix(1.0470698,0,0,1.0470698,197.57899,71.059521)"
       style="fill:#ff0000;fill-opacity:0.21277101;fill-rule:evenodd;stroke:#000000;stroke-width:0.25;stroke-linecap:butt;stroke-linejoin:miter;stroke-opacity:1" />
    <polygon
       points="2,8 1,9 0,8 0,2 1,1 2,2 "
       id="f-91-10"
       transform="matrix(1.0470698,0,0,1.0470698,197.57899,71.059521)"
       style="fill:#ff0000;fill-opacity:0.21277101;fill-rule:evenodd;stroke:#000000;stroke-width:0.25;stroke-linecap:butt;stroke-linejoin:miter;stroke-opacity:1" />
    <polygon
       points="2,10 1,9 2,8 8,8 9,9 8,10 "
       id="g-6-784"
       transform="matrix(1.0470698,0,0,1.0470698,197.57899,71.059521)"
       style="fill:#ff0000;fill-opacity:0.21277101;fill-rule:evenodd;stroke:#000000;stroke-width:0.25;stroke-linecap:butt;stroke-linejoin:miter;stroke-opacity:1" />
    <polygon
       style="fill:#ff0000;fill-opacity:0.21277101;fill-rule:evenodd;stroke:#000000;stroke-width:0.25;stroke-linecap:butt;stroke-linejoin:miter;stroke-opacity:1"
       transform="matrix(1.0470698,0,0,1.0470698,92.4892,2.3430308)"
       id="c-8"
       points="10,10 10,16 9,17 8,16 8,10 9,9 " />
    <polygon
       style="fill:#ff0000;fill-opacity:0.21277101;fill-rule:evenodd;stroke:#000000;stroke-width:0.25;stroke-linecap:butt;stroke-linejoin:miter;stroke-opacity:1"
       transform="matrix(1.0470698,0,0,1.0470698,92.4892,2.3430308)"
       id="d-41"
       points="8,18 2,18 1,17 2,16 8,16 9,17 " />
    <polygon
       points="0,8 0,2 1,1 2,2 2,8 1,9 "
       id="f-91-1"
       transform="matrix(1.0470698,0,0,1.0470698,122.54308,25.056511)"
       style="fill:#ff0000;fill-opacity:0.21277101;fill-rule:evenodd;stroke:#000000;stroke-width:0.25;stroke-linecap:butt;stroke-linejoin:miter;stroke-opacity:1" />
    <polygon
       points="2,8 8,8 9,9 8,10 2,10 1,9 "
       id="g-6-8"
       transform="matrix(1.0470698,0,0,1.0470698,122.54308,25.056511)"
       style="fill:#ff0000;fill-opacity:0.21277101;fill-rule:evenodd;stroke:#000000;stroke-width:0.25;stroke-linecap:butt;stroke-linejoin:miter;stroke-opacity:1" />
    <polygon
       points="10,10 10,16 9,17 8,16 8,10 9,9 "
       id="c-3-71"
       transform="matrix(1.0470698,0,0,1.0470698,122.54308,25.056511)"
       style="fill:#ff0000;fill-opacity:0.21277101;fill-rule:evenodd;stroke:#000000;stroke-width:0.25;stroke-linecap:butt;stroke-linejoin:miter;stroke-opacity:1" />
    <polygon
       points="9,9 10,10 10,16 9,17 8,16 8,10 "
       id="c-3-48"
       transform="matrix(1.0470698,0,0,1.0470698,92.4892,2.3430308)"
       style="fill:#360000;fill-opacity:1;fill-rule:evenodd;stroke:#000000;stroke-width:0.25;stroke-linecap:butt;stroke-linejoin:miter;stroke-opacity:1" />
    <polygon
       points="1,17 0,16 0,10 1,9 2,10 2,16 "
       id="e-80-69"
       transform="matrix(1.0470698,0,0,1.0470698,92.4892,2.3430308)"
       style="fill:#ff0000;fill-opacity:0.21277101;fill-rule:evenodd;stroke:#000000;stroke-width:0.25;stroke-linecap:butt;stroke-linejoin:miter;stroke-opacity:1" />
    <polygon
       transform="matrix(1.0470698,0,0,1.0470698,62.555058,2.3430308)"
       id="b-1"
       points="10,2 10,8 9,9 8,8 8,2 9,1 "
       style="fill:#ff0000;fill-opacity:0.21277101;fill-rule:evenodd;stroke:#000000;stroke-width:0.25;stroke-linecap:butt;stroke-linejoin:miter;stroke-opacity:1" />
    <polygon
       style="fill:#ff0000;fill-opacity:0.21277101;fill-rule:evenodd;stroke:#000000;stroke-width:0.25;stroke-linecap:butt;stroke-linejoin:miter;stroke-opacity:1"
       transform="matrix(1.0470698,0,0,1.0470698,62.555058,2.3430308)"
       id="c-69"
       points="10,10 10,16 9,17 8,16 8,10 9,9 " />
    <polygon
       transform="matrix(1.0470698,0,0,1.0470698,77.441344,2.3430308)"
       id="a-0"
       points="2,0 8,0 9,1 8,2 2,2 1,1 "
       style="fill:#ff0000;fill-opacity:0.21277101;fill-rule:evenodd;stroke:#000000;stroke-width:0.25;stroke-linecap:butt;stroke-linejoin:miter;stroke-opacity:1" />
    <polygon
       transform="matrix(1.0470698,0,0,1.0470698,77.441344,2.3430308)"
       id="b-18"
       points="10,2 10,8 9,9 8,8 8,2 9,1 "
       style="fill:#ff0000;fill-opacity:0.21277101;fill-rule:evenodd;stroke:#000000;stroke-width:0.25;stroke-linecap:butt;stroke-linejoin:miter;stroke-opacity:1" />
    <polygon
       style="fill:#ff0000;fill-opacity:0.21277101;fill-rule:evenodd;stroke:#000000;stroke-width:0.25;stroke-linecap:butt;stroke-linejoin:miter;stroke-opacity:1"
       transform="matrix(1.0470698,0,0,1.0470698,77.441344,2.3430308)"
       id="c-3"
       points="10,10 10,16 9,17 8,16 8,10 9,9 " />
    <polygon
       style="fill:#ff0000;fill-opacity:0.21277101;fill-rule:evenodd;stroke:#000000;stroke-width:0.25;stroke-linecap:butt;stroke-linejoin:miter;stroke-opacity:1"
       transform="matrix(1.0470698,0,0,1.0470698,77.441344,2.3430308)"
       id="d-39"
       points="8,18 2,18 1,17 2,16 8,16 9,17 " />
    <polygon
       style="fill:#ff0000;fill-opacity:0.21277101;fill-rule:evenodd;stroke:#000000;stroke-width:0.25;stroke-linecap:butt;stroke-linejoin:miter;stroke-opacity:1"
       transform="matrix(1.0470698,0,0,1.0470698,77.441344,2.3430308)"
       id="e-80"
       points="0,16 0,10 1,9 2,10 2,16 1,17 " />
    <polygon
       style="fill:#ff0000;fill-opacity:0.21277101;fill-rule:evenodd;stroke:#000000;stroke-width:0.25;stroke-linecap:butt;stroke-linejoin:miter;stroke-opacity:1"
       transform="matrix(1.0470698,0,0,1.0470698,77.441344,2.3430308)"
       id="f-91"
       points="0,8 0,2 1,1 2,2 2,8 1,9 " />
    <polygon
       style="fill:#ff0000;fill-opacity:0.21277101;fill-rule:evenodd;stroke:#000000;stroke-width:0.25;stroke-linecap:butt;stroke-linejoin:miter;stroke-opacity:1"
       transform="matrix(1.0470698,0,0,1.0470698,77.441344,2.3430308)"
       id="g-6"
       points="2,8 8,8 9,9 8,10 2,10 1,9 " />
    <polygon
       transform="matrix(1.0470698,0,0,1.0470698,107.50917,2.3430308)"
       id="a-6"
       points="8,0 9,1 8,2 2,2 1,1 2,0 "
       style="fill:#ff0000;fill-opacity:0.21277101;fill-rule:evenodd;stroke:#000000;stroke-width:0.25;stroke-linecap:butt;stroke-linejoin:miter;stroke-opacity:1" />
    <polygon
       transform="matrix(1.0470698,0,0,1.0470698,107.50917,2.3430308)"
       id="b-8"
       points="10,8 9,9 8,8 8,2 9,1 10,2 "
       style="fill:#ff0000;fill-opacity:0.21277101;fill-rule:evenodd;stroke:#000000;stroke-width:0.25;stroke-linecap:butt;stroke-linejoin:miter;stroke-opacity:1" />
    <polygon
       style="fill:#ff0000;fill-opacity:0.21277101;fill-rule:evenodd;stroke:#000000;stroke-width:0.25;stroke-linecap:butt;stroke-linejoin:miter;stroke-opacity:1"
       transform="matrix(1.0470698,0,0,1.0470698,107.50917,2.3430308)"
       id="c-85"
       points="10,16 9,17 8,16 8,10 9,9 10,10 " />
    <polygon
       style="fill:#ff0000;fill-opacity:0.21277101;fill-rule:evenodd;stroke:#000000;stroke-width:0.25;stroke-linecap:butt;stroke-linejoin:miter;stroke-opacity:1"
       transform="matrix(1.0470698,0,0,1.0470698,107.50917,2.3430308)"
       id="f-7"
       points="0,2 1,1 2,2 2,8 1,9 0,8 " />
    <polygon
       style="fill:#ff0000;fill-opacity:0.21277101;fill-rule:evenodd;stroke:#000000;stroke-width:0.25;stroke-linecap:butt;stroke-linejoin:miter;stroke-opacity:1"
       transform="matrix(1.0470698,0,0,1.0470698,107.50917,2.3430308)"
       id="g"
       points="8,8 9,9 8,10 2,10 1,9 2,8 " />
    <polygon
       style="fill:#ff0000;fill-opacity:0.21277101;fill-rule:evenodd;stroke:#000000;stroke-width:0.25;stroke-linecap:butt;stroke-linejoin:miter;stroke-opacity:1"
       points="2,0 8,0 9,1 8,2 2,2 1,1 "
       id="a-0-0"
       transform="matrix(1.0470698,0,0,1.0470698,122.54308,2.3430308)" />
    <polygon
       points="8,18 2,18 1,17 2,16 8,16 9,17 "
       id="d-39-1"
       transform="matrix(1.0470698,0,0,1.0470698,122.54308,2.3430308)"
       style="fill:#ff0000;fill-opacity:0.21277101;fill-rule:evenodd;stroke:#000000;stroke-width:0.25;stroke-linecap:butt;stroke-linejoin:miter;stroke-opacity:1" />
    <polygon
       points="0,16 0,10 1,9 2,10 2,16 1,17 "
       id="e-80-1"
       transform="matrix(1.0470698,0,0,1.0470698,122.54308,2.3430308)"
       style="fill:#ff0000;fill-opacity:0.21277101;fill-rule:evenodd;stroke:#000000;stroke-width:0.25;stroke-linecap:butt;stroke-linejoin:miter;stroke-opacity:1" />
    <polygon
       points="0,8 0,2 1,1 2,2 2,8 1,9 "
       id="f-91-9"
       transform="matrix(1.0470698,0,0,1.0470698,122.54308,2.3430308)"
       style="fill:#ff0000;fill-opacity:0.21277101;fill-rule:evenodd;stroke:#000000;stroke-width:0.25;stroke-linecap:butt;stroke-linejoin:miter;stroke-opacity:1" />
    <polygon
       style="fill:#ff0000;fill-opacity:0.21277101;fill-rule:evenodd;stroke:#000000;stroke-width:0.25;stroke-linecap:butt;stroke-linejoin:miter;stroke-opacity:1"
       points="2,0 8,0 9,1 8,2 2,2 1,1 "
       id="a-0-3"
       transform="matrix(1.0470698,0,0,1.0470698,137.51017,2.3430308)" />
    <polygon
       style="fill:#ff0000;fill-opacity:0.21277101;fill-rule:evenodd;stroke:#000000;stroke-width:0.25;stroke-linecap:butt;stroke-linejoin:miter;stroke-opacity:1"
       points="10,2 10,8 9,9 8,8 8,2 9,1 "
       id="b-18-5"
       transform="matrix(1.0470698,0,0,1.0470698,137.51017,2.3430308)" />
    <polygon
       points="10,10 10,16 9,17 8,16 8,10 9,9 "
       id="c-3-5"
       transform="matrix(1.0470698,0,0,1.0470698,137.51017,2.3430308)"
       style="fill:#ff0000;fill-opacity:0.21277101;fill-rule:evenodd;stroke:#000000;stroke-width:0.25;stroke-linecap:butt;stroke-linejoin:miter;stroke-opacity:1" />
    <polygon
       points="0,16 0,10 1,9 2,10 2,16 1,17 "
       id="e-80-9"
       transform="matrix(1.0470698,0,0,1.0470698,137.51017,2.3430308)"
       style="fill:#ff0000;fill-opacity:0.21277101;fill-rule:evenodd;stroke:#000000;stroke-width:0.25;stroke-linecap:butt;stroke-linejoin:miter;stroke-opacity:1" />
    <polygon
       points="0,8 0,2 1,1 2,2 2,8 1,9 "
       id="f-91-98"
       transform="matrix(1.0470698,0,0,1.0470698,137.51017,2.3430308)"
       style="fill:#ff0000;fill-opacity:0.21277101;fill-rule:evenodd;stroke:#000000;stroke-width:0.25;stroke-linecap:butt;stroke-linejoin:miter;stroke-opacity:1" />
    <polygon
       points="2,8 8,8 9,9 8,10 2,10 1,9 "
       id="g-6-9"
       transform="matrix(1.0470698,0,0,1.0470698,137.51017,2.3430308)"
       style="fill:#ff0000;fill-opacity:0.21277101;fill-rule:evenodd;stroke:#000000;stroke-width:0.25;stroke-linecap:butt;stroke-linejoin:miter;stroke-opacity:1" />
    <polygon
       style="fill:#ff0000;fill-opacity:0.21277101;fill-rule:evenodd;stroke:#000000;stroke-width:0.25;stroke-linecap:butt;stroke-linejoin:miter;stroke-opacity:1"
       points="10,2 10,8 9,9 8,8 8,2 9,1 "
       id="b-18-6"
       transform="matrix(1.0470698,0,0,1.0470698,152.54408,2.3430308)" />
    <polygon
       points="10,10 10,16 9,17 8,16 8,10 9,9 "
       id="c-3-9"
       transform="matrix(1.0470698,0,0,1.0470698,152.54408,2.3430308)"
       style="fill:#ff0000;fill-opacity:0.21277101;fill-rule:evenodd;stroke:#000000;stroke-width:0.25;stroke-linecap:butt;stroke-linejoin:miter;stroke-opacity:1" />
    <polygon
       points="0,16 0,10 1,9 2,10 2,16 1,17 "
       id="e-80-5"
       transform="matrix(1.0470698,0,0,1.0470698,152.54408,2.3430308)"
       style="fill:#ff0000;fill-opacity:0.21277101;fill-rule:evenodd;stroke:#000000;stroke-width:0.25;stroke-linecap:butt;stroke-linejoin:miter;stroke-opacity:1" />
    <polygon
       points="0,8 0,2 1,1 2,2 2,8 1,9 "
       id="f-91-5"
       transform="matrix(1.0470698,0,0,1.0470698,152.54408,2.3430308)"
       style="fill:#ff0000;fill-opacity:0.21277101;fill-rule:evenodd;stroke:#000000;stroke-width:0.25;stroke-linecap:butt;stroke-linejoin:miter;stroke-opacity:1" />
    <polygon
       points="2,8 8,8 9,9 8,10 2,10 1,9 "
       id="g-6-4"
       transform="matrix(1.0470698,0,0,1.0470698,152.54408,2.3430308)"
       style="fill:#ff0000;fill-opacity:0.21277101;fill-rule:evenodd;stroke:#000000;stroke-width:0.25;stroke-linecap:butt;stroke-linejoin:miter;stroke-opacity:1" />
    <polygon
       style="fill:#ff0000;fill-opacity:0.21277101;fill-rule:evenodd;stroke:#000000;stroke-width:0.25;stroke-linecap:butt;stroke-linejoin:miter;stroke-opacity:1"
       points="2,0 8,0 9,1 8,2 2,2 1,1 "
       id="a-0-73"
       transform="matrix(1.0470698,0,0,1.0470698,167.44436,2.3430308)" />
    <polygon
       style="fill:#ff0000;fill-opacity:0.21277101;fill-rule:evenodd;stroke:#000000;stroke-width:0.25;stroke-linecap:butt;stroke-linejoin:miter;stroke-opacity:1"
       points="10,2 10,8 9,9 8,8 8,2 9,1 "
       id="b-18-57"
       transform="matrix(1.0470698,0,0,1.0470698,167.44436,2.3430308)" />
    <polygon
       points="8,18 2,18 1,17 2,16 8,16 9,17 "
       id="d-39-9"
       transform="matrix(1.0470698,0,0,1.0470698,167.44436,2.3430308)"
       style="fill:#ff0000;fill-opacity:0.21277101;fill-rule:evenodd;stroke:#000000;stroke-width:0.25;stroke-linecap:butt;stroke-linejoin:miter;stroke-opacity:1" />
    <polygon
       points="0,16 0,10 1,9 2,10 2,16 1,17 "
       id="e-80-2"
       transform="matrix(1.0470698,0,0,1.0470698,167.44436,2.3430308)"
       style="fill:#ff0000;fill-opacity:0.21277101;fill-rule:evenodd;stroke:#000000;stroke-width:0.25;stroke-linecap:butt;stroke-linejoin:miter;stroke-opacity:1" />
    <polygon
       points="2,8 8,8 9,9 8,10 2,10 1,9 "
       id="g-6-0"
       transform="matrix(1.0470698,0,0,1.0470698,167.44436,2.3430308)"
       style="fill:#ff0000;fill-opacity:0.21277101;fill-rule:evenodd;stroke:#000000;stroke-width:0.25;stroke-linecap:butt;stroke-linejoin:miter;stroke-opacity:1" />
    <polygon
       style="fill:#ff0000;fill-opacity:0.21277101;fill-rule:evenodd;stroke:#000000;stroke-width:0.25;stroke-linecap:butt;stroke-linejoin:miter;stroke-opacity:1"
       points="9,1 8,2 2,2 1,1 2,0 8,0 "
       id="a-0-4"
       transform="matrix(1.0470698,0,0,1.0470698,182.54508,2.3430308)" />
    <polygon
       style="fill:#ff0000;fill-opacity:0.21277101;fill-rule:evenodd;stroke:#000000;stroke-width:0.25;stroke-linecap:butt;stroke-linejoin:miter;stroke-opacity:1"
       points="9,9 8,8 8,2 9,1 10,2 10,8 "
       id="b-18-4"
       transform="matrix(1.0470698,0,0,1.0470698,182.54508,2.3430308)" />
    <polygon
       points="9,17 8,16 8,10 9,9 10,10 10,16 "
       id="c-3-8"
       transform="matrix(1.0470698,0,0,1.0470698,182.54508,2.3430308)"
       style="fill:#ff0000;fill-opacity:0.21277101;fill-rule:evenodd;stroke:#000000;stroke-width:0.25;stroke-linecap:butt;stroke-linejoin:miter;stroke-opacity:1" />
    <polygon
       style="fill:#ff0000;fill-opacity:0.21277101;fill-rule:evenodd;stroke:#000000;stroke-width:0.25;stroke-linecap:butt;stroke-linejoin:miter;stroke-opacity:1"
       points="2,0 8,0 9,1 8,2 2,2 1,1 "
       id="a-0-8"
       transform="matrix(1.0470698,0,0,1.0470698,197.57899,2.3430308)" />
    <polygon
       points="8,18 2,18 1,17 2,16 8,16 9,17 "
       id="d-39-2"
       transform="matrix(1.0470698,0,0,1.0470698,197.57899,2.3430308)"
       style="fill:#ff0000;fill-opacity:0.21277101;fill-rule:evenodd;stroke:#000000;stroke-width:0.25;stroke-linecap:butt;stroke-linejoin:miter;stroke-opacity:1" />
    <polygon
       points="0,16 0,10 1,9 2,10 2,16 1,17 "
       id="e-80-6"
       transform="matrix(1.0470698,0,0,1.0470698,197.57899,2.3430308)"
       style="fill:#ff0000;fill-opacity:0.21277101;fill-rule:evenodd;stroke:#000000;stroke-width:0.25;stroke-linecap:butt;stroke-linejoin:miter;stroke-opacity:1" />
    <polygon
       points="0,8 0,2 1,1 2,2 2,8 1,9 "
       id="f-91-56"
       transform="matrix(1.0470698,0,0,1.0470698,197.57899,2.3430308)"
       style="fill:#ff0000;fill-opacity:0.21277101;fill-rule:evenodd;stroke:#000000;stroke-width:0.25;stroke-linecap:butt;stroke-linejoin:miter;stroke-opacity:1" />
    <polygon
       points="2,8 8,8 9,9 8,10 2,10 1,9 "
       id="g-6-43"
       transform="matrix(1.0470698,0,0,1.0470698,197.57899,2.3430308)"
       style="fill:#ff0000;fill-opacity:0.21277101;fill-rule:evenodd;stroke:#000000;stroke-width:0.25;stroke-linecap:butt;stroke-linejoin:miter;stroke-opacity:1" />
    <polygon
       style="fill:#ff0000;fill-opacity:0.21277101;fill-rule:evenodd;stroke:#000000;stroke-width:0.25;stroke-linecap:butt;stroke-linejoin:miter;stroke-opacity:1"
       points="10,2 10,8 9,9 8,8 8,2 9,1 "
       id="b-18-1"
       transform="matrix(1.0470698,0,0,1.0470698,122.54308,25.056511)" />
    <polygon
       style="fill:#ff0000;fill-opacity:0.21277101;fill-rule:evenodd;stroke:#000000;stroke-width:0.25;stroke-linecap:butt;stroke-linejoin:miter;stroke-opacity:1"
       points="10,2 10,8 9,9 8,8 8,2 9,1 "
       id="b-18-2"
       transform="matrix(1.0470698,0,0,1.0470698,137.51017,25.056511)" />
    <polygon
       points="10,10 10,16 9,17 8,16 8,10 9,9 "
       id="c-3-66"
       transform="matrix(1.0470698,0,0,1.0470698,137.51017,25.056511)"
       style="fill:#ff0000;fill-opacity:0.21277101;fill-rule:evenodd;stroke:#000000;stroke-width:0.25;stroke-linecap:butt;stroke-linejoin:miter;stroke-opacity:1" />
    <polygon
       style="fill:#ff0000;fill-opacity:0.21277101;fill-rule:evenodd;stroke:#000000;stroke-width:0.25;stroke-linecap:butt;stroke-linejoin:miter;stroke-opacity:1"
       points="8,0 9,1 8,2 2,2 1,1 2,0 "
       id="a-0-852"
       transform="matrix(1.0470698,0,0,1.0470698,152.54408,25.056511)" />
    <polygon
       style="fill:#ff0000;fill-opacity:0.21277101;fill-rule:evenodd;stroke:#000000;stroke-width:0.25;stroke-linecap:butt;stroke-linejoin:miter;stroke-opacity:1"
       points="10,8 9,9 8,8 8,2 9,1 10,2 "
       id="b-18-41"
       transform="matrix(1.0470698,0,0,1.0470698,152.54408,25.056511)" />
    <polygon
       points="10,16 9,17 8,16 8,10 9,9 10,10 "
       id="c-3-4"
       transform="matrix(1.0470698,0,0,1.0470698,152.54408,25.056511)"
       style="fill:#ff0000;fill-opacity:0.21277101;fill-rule:evenodd;stroke:#000000;stroke-width:0.25;stroke-linecap:butt;stroke-linejoin:miter;stroke-opacity:1" />
    <polygon
       points="8,8 9,9 8,10 2,10 1,9 2,8 "
       id="g-6-87"
       transform="matrix(1.0470698,0,0,1.0470698,152.54408,25.056511)"
       style="fill:#ff0000;fill-opacity:0.21277101;fill-rule:evenodd;stroke:#000000;stroke-width:0.25;stroke-linecap:butt;stroke-linejoin:miter;stroke-opacity:1" />
    <polygon
       style="fill:#ff0000;fill-opacity:0.21277101;fill-rule:evenodd;stroke:#000000;stroke-width:0.25;stroke-linecap:butt;stroke-linejoin:miter;stroke-opacity:1"
       points="2,0 8,0 9,1 8,2 2,2 1,1 "
       id="a-0-6"
       transform="matrix(1.0470698,0,0,1.0470698,167.44436,25.056511)" />
    <polygon
       points="10,10 10,16 9,17 8,16 8,10 9,9 "
       id="c-3-42"
       transform="matrix(1.0470698,0,0,1.0470698,167.44436,25.056511)"
       style="fill:#ff0000;fill-opacity:0.21277101;fill-rule:evenodd;stroke:#000000;stroke-width:0.25;stroke-linecap:butt;stroke-linejoin:miter;stroke-opacity:1" />
    <polygon
       points="0,8 0,2 1,1 2,2 2,8 1,9 "
       id="f-91-60"
       transform="matrix(1.0470698,0,0,1.0470698,167.44436,25.056511)"
       style="fill:#ff0000;fill-opacity:0.21277101;fill-rule:evenodd;stroke:#000000;stroke-width:0.25;stroke-linecap:butt;stroke-linejoin:miter;stroke-opacity:1" />
    <polygon
       points="2,8 8,8 9,9 8,10 2,10 1,9 "
       id="g-6-2"
       transform="matrix(1.0470698,0,0,1.0470698,167.44436,25.056511)"
       style="fill:#ff0000;fill-opacity:0.21277101;fill-rule:evenodd;stroke:#000000;stroke-width:0.25;stroke-linecap:butt;stroke-linejoin:miter;stroke-opacity:1" />
    <polygon
       style="fill:#ff0000;fill-opacity:0.21277101;fill-rule:evenodd;stroke:#000000;stroke-width:0.25;stroke-linecap:butt;stroke-linejoin:miter;stroke-opacity:1"
       points="2,0 8,0 9,1 8,2 2,2 1,1 "
       id="a-0-1"
       transform="matrix(1.0470698,0,0,1.0470698,182.54508,25.056511)" />
    <polygon
       style="fill:#ff0000;fill-opacity:0.21277101;fill-rule:evenodd;stroke:#000000;stroke-width:0.25;stroke-linecap:butt;stroke-linejoin:miter;stroke-opacity:1"
       points="10,2 10,8 9,9 8,8 8,2 9,1 "
       id="b-18-62"
       transform="matrix(1.0470698,0,0,1.0470698,182.54508,25.056511)" />
    <polygon
       points="10,10 10,16 9,17 8,16 8,10 9,9 "
       id="c-3-40"
       transform="matrix(1.0470698,0,0,1.0470698,182.54508,25.056511)"
       style="fill:#ff0000;fill-opacity:0.21277101;fill-rule:evenodd;stroke:#000000;stroke-width:0.25;stroke-linecap:butt;stroke-linejoin:miter;stroke-opacity:1" />
    <polygon
       points="0,16 0,10 1,9 2,10 2,16 1,17 "
       id="e-80-7"
       transform="matrix(1.0470698,0,0,1.0470698,182.54508,25.056511)"
       style="fill:#ff0000;fill-opacity:0.21277101;fill-rule:evenodd;stroke:#000000;stroke-width:0.25;stroke-linecap:butt;stroke-linejoin:miter;stroke-opacity:1" />
    <polygon
       points="0,8 0,2 1,1 2,2 2,8 1,9 "
       id="f-91-2"
       transform="matrix(1.0470698,0,0,1.0470698,182.54508,25.056511)"
       style="fill:#ff0000;fill-opacity:0.21277101;fill-rule:evenodd;stroke:#000000;stroke-width:0.25;stroke-linecap:butt;stroke-linejoin:miter;stroke-opacity:1" />
    <polygon
       points="2,8 8,8 9,9 8,10 2,10 1,9 "
       id="g-6-90"
       transform="matrix(1.0470698,0,0,1.0470698,182.54508,25.056511)"
       style="fill:#ff0000;fill-opacity:0.21277101;fill-rule:evenodd;stroke:#000000;stroke-width:0.25;stroke-linecap:butt;stroke-linejoin:miter;stroke-opacity:1" />
    <polygon
       style="fill:#ff0000;fill-opacity:0.21277101;fill-rule:evenodd;stroke:#000000;stroke-width:0.25;stroke-linecap:butt;stroke-linejoin:miter;stroke-opacity:1"
       points="2,0 8,0 9,1 8,2 2,2 1,1 "
       id="a-0-76"
       transform="matrix(1.0470698,0,0,1.0470698,197.57899,25.056511)" />
    <polygon
       style="fill:#ff0000;fill-opacity:0.21277101;fill-rule:evenodd;stroke:#000000;stroke-width:0.25;stroke-linecap:butt;stroke-linejoin:miter;stroke-opacity:1"
       points="10,2 10,8 9,9 8,8 8,2 9,1 "
       id="b-18-25"
       transform="matrix(1.0470698,0,0,1.0470698,197.57899,25.056511)" />
    <polygon
       points="0,16 0,10 1,9 2,10 2,16 1,17 "
       id="e-80-36"
       transform="matrix(1.0470698,0,0,1.0470698,197.57899,25.056511)"
       style="fill:#ff0000;fill-opacity:0.21277101;fill-rule:evenodd;stroke:#000000;stroke-width:0.25;stroke-linecap:butt;stroke-linejoin:miter;stroke-opacity:1" />
    <polygon
       points="2,8 8,8 9,9 8,10 2,10 1,9 "
       id="g-6-67"
       transform="matrix(1.0470698,0,0,1.0470698,197.57899,25.056511)"
       style="fill:#ff0000;fill-opacity:0.21277101;fill-rule:evenodd;stroke:#000000;stroke-width:0.25;stroke-linecap:butt;stroke-linejoin:miter;stroke-opacity:1" />
    <polygon
       style="fill:#ff0000;fill-opacity:0.21277101;fill-rule:evenodd;stroke:#000000;stroke-width:0.25;stroke-linecap:butt;stroke-linejoin:miter;stroke-opacity:1"
       points="1,1 2,0 8,0 9,1 8,2 2,2 "
       id="a-0-95"
       transform="matrix(1.0470698,0,0,1.0470698,92.4892,2.3430308)" />
    <polygon
       style="fill:#ff0000;fill-opacity:0.21277101;fill-rule:evenodd;stroke:#000000;stroke-width:0.25;stroke-linecap:butt;stroke-linejoin:miter;stroke-opacity:1"
       points="9,1 10,2 10,8 9,9 8,8 8,2 "
       id="b-18-531"
       transform="matrix(1.0470698,0,0,1.0470698,92.4892,2.3430308)" />
    <polygon
       points="1,9 0,8 0,2 1,1 2,2 2,8 "
       id="f-91-00"
       transform="matrix(1.0470698,0,0,1.0470698,92.4892,2.3430308)"
       style="fill:#ff0000;fill-opacity:0.21277101;fill-rule:evenodd;stroke:#000000;stroke-width:0.25;stroke-linecap:butt;stroke-linejoin:miter;stroke-opacity:1" />
    <polygon
       points="1,9 2,8 8,8 9,9 8,10 2,10 "
       id="g-6-53"
       transform="matrix(1.0470698,0,0,1.0470698,92.4892,2.3430308)"
       style="fill:#ff0000;fill-opacity:0.21277101;fill-rule:evenodd;stroke:#000000;stroke-width:0.25;stroke-linecap:butt;stroke-linejoin:miter;stroke-opacity:1" />
    <polygon
       points="9,17 8,16 8,10 9,9 10,10 10,16 "
       id="c-3-46"
       transform="matrix(1.0470698,0,0,1.0470698,47.530505,48.475441)"
       style="fill:#ff0000;fill-opacity:0.21277101;fill-rule:evenodd;stroke:#000000;stroke-width:0.25;stroke-linecap:butt;stroke-linejoin:miter;stroke-opacity:1" />
    <polygon
       style="fill:#ff0000;fill-opacity:0.21277101;fill-rule:evenodd;stroke:#000000;stroke-width:0.25;stroke-linecap:butt;stroke-linejoin:miter;stroke-opacity:1"
       points="9,9 8,8 8,2 9,1 10,2 10,8 "
       id="b-18-22"
       transform="matrix(1.0470698,0,0,1.0470698,47.530505,71.059521)" />
    <polygon
       transform="matrix(1.0470698,0,0,1.0470698,32.479088,2.3430308)"
       id="a-5"
       points="8,0 9,1 8,2 2,2 1,1 2,0 "
       style="fill:#ff0000;fill-opacity:0.21277101;fill-rule:evenodd;stroke:#000000;stroke-width:0.25;stroke-linecap:butt;stroke-linejoin:miter;stroke-opacity:1" />
    <polygon
       transform="matrix(1.0470698,0,0,1.0470698,32.479088,2.3430308)"
       id="b-9"
       points="10,8 9,9 8,8 8,2 9,1 10,2 "
       style="fill:#ff0000;fill-opacity:0.21277101;fill-rule:evenodd;stroke:#000000;stroke-width:0.25;stroke-linecap:butt;stroke-linejoin:miter;stroke-opacity:1" />
    <polygon
       style="fill:#ff0000;fill-opacity:0.21277101;fill-rule:evenodd;stroke:#000000;stroke-width:0.25;stroke-linecap:butt;stroke-linejoin:miter;stroke-opacity:1"
       transform="matrix(1.0470698,0,0,1.0470698,32.479088,2.3430308)"
       id="c-9"
       points="10,16 9,17 8,16 8,10 9,9 10,10 " />
    <polygon
       style="fill:#ff0000;fill-opacity:0.21277101;fill-rule:evenodd;stroke:#000000;stroke-width:0.25;stroke-linecap:butt;stroke-linejoin:miter;stroke-opacity:1"
       transform="matrix(1.0470698,0,0,1.0470698,32.479088,2.3430308)"
       id="d-1"
       points="2,18 1,17 2,16 8,16 9,17 8,18 " />
    <polygon
       style="fill:#ff0000;fill-opacity:0.21277101;fill-rule:evenodd;stroke:#000000;stroke-width:0.25;stroke-linecap:butt;stroke-linejoin:miter;stroke-opacity:1"
       transform="matrix(1.0470698,0,0,1.0470698,32.479088,2.3430308)"
       id="g-0"
       points="8,8 9,9 8,10 2,10 1,9 2,8 " />
    <polygon
       transform="matrix(1.0470698,0,0,1.0470698,47.530505,2.3430308)"
       id="a-36"
       points="9,1 8,2 2,2 1,1 2,0 8,0 "
       style="fill:#ff0000;fill-opacity:0.21277101;fill-rule:evenodd;stroke:#000000;stroke-width:0.25;stroke-linecap:butt;stroke-linejoin:miter;stroke-opacity:1" />
    <polygon
       style="fill:#ff0000;fill-opacity:0.21277101;fill-rule:evenodd;stroke:#000000;stroke-width:0.25;stroke-linecap:butt;stroke-linejoin:miter;stroke-opacity:1"
       transform="matrix(1.0470698,0,0,1.0470698,47.530505,2.3430308)"
       id="c-7"
       points="9,17 8,16 8,10 9,9 10,10 10,16 " />
    <polygon
       style="fill:#ff0000;fill-opacity:0.21277101;fill-rule:evenodd;stroke:#000000;stroke-width:0.25;stroke-linecap:butt;stroke-linejoin:miter;stroke-opacity:1"
       transform="matrix(1.0470698,0,0,1.0470698,47.530505,2.3430308)"
       id="d-4"
       points="1,17 2,16 8,16 9,17 8,18 2,18 " />
    <polygon
       style="fill:#ff0000;fill-opacity:0.21277101;fill-rule:evenodd;stroke:#000000;stroke-width:0.25;stroke-linecap:butt;stroke-linejoin:miter;stroke-opacity:1"
       transform="matrix(1.0470698,0,0,1.0470698,47.530505,2.3430308)"
       id="f-39"
       points="1,1 2,2 2,8 1,9 0,8 0,2 " />
    <polygon
       style="fill:#ff0000;fill-opacity:0.21277101;fill-rule:evenodd;stroke:#000000;stroke-width:0.25;stroke-linecap:butt;stroke-linejoin:miter;stroke-opacity:1"
       transform="matrix(1.0470698,0,0,1.0470698,47.530505,2.3430308)"
       id="g-8"
       points="9,9 8,10 2,10 1,9 2,8 8,8 " />
    <polygon
       style="fill:#ff0000;fill-opacity:0.21277101;fill-rule:evenodd;stroke:#000000;stroke-width:0.25;stroke-linecap:butt;stroke-linejoin:miter;stroke-opacity:1"
       points="9,1 8,2 2,2 1,1 2,0 8,0 "
       id="a-0-09"
       transform="matrix(1.0470698,0,0,1.0470698,32.479088,25.056511)" />
    <polygon
       points="1,17 2,16 8,16 9,17 8,18 2,18 "
       id="d-39-3"
       transform="matrix(1.0470698,0,0,1.0470698,32.479088,25.056511)"
       style="fill:#ff0000;fill-opacity:0.21277101;fill-rule:evenodd;stroke:#000000;stroke-width:0.25;stroke-linecap:butt;stroke-linejoin:miter;stroke-opacity:1" />
    <polygon
       points="1,9 2,10 2,16 1,17 0,16 0,10 "
       id="e-80-13"
       transform="matrix(1.0470698,0,0,1.0470698,32.479088,25.056511)"
       style="fill:#ff0000;fill-opacity:0.21277101;fill-rule:evenodd;stroke:#000000;stroke-width:0.25;stroke-linecap:butt;stroke-linejoin:miter;stroke-opacity:1" />
    <polygon
       points="1,1 2,2 2,8 1,9 0,8 0,2 "
       id="f-91-51"
       transform="matrix(1.0470698,0,0,1.0470698,32.479088,25.056511)"
       style="fill:#ff0000;fill-opacity:0.21277101;fill-rule:evenodd;stroke:#000000;stroke-width:0.25;stroke-linecap:butt;stroke-linejoin:miter;stroke-opacity:1" />
    <polygon
       points="9,9 8,10 2,10 1,9 2,8 8,8 "
       id="g-6-60"
       transform="matrix(1.0470698,0,0,1.0470698,32.479088,25.056511)"
       style="fill:#ff0000;fill-opacity:0.21277101;fill-rule:evenodd;stroke:#000000;stroke-width:0.25;stroke-linecap:butt;stroke-linejoin:miter;stroke-opacity:1" />
    <polygon
       points="1,9 2,10 2,16 1,17 0,16 0,10 "
       id="e-80-62"
       transform="matrix(1.0470698,0,0,1.0470698,47.530505,25.056511)"
       style="fill:#ff0000;fill-opacity:0.21277101;fill-rule:evenodd;stroke:#000000;stroke-width:0.25;stroke-linecap:butt;stroke-linejoin:miter;stroke-opacity:1" />
    <polygon
       points="9,9 8,10 2,10 1,9 2,8 8,8 "
       id="g-6-66"
       transform="matrix(1.0470698,0,0,1.0470698,47.530505,25.056511)"
       style="fill:#ff0000;fill-opacity:0.21277101;fill-rule:evenodd;stroke:#000000;stroke-width:0.25;stroke-linecap:butt;stroke-linejoin:miter;stroke-opacity:1" />
    <polygon
       points="1,9 2,10 2,16 1,17 0,16 0,10 "
       id="e-80-54"
       transform="matrix(1.0470698,0,0,1.0470698,62.555058,25.056511)"
       style="fill:#ff0000;fill-opacity:0.21277101;fill-rule:evenodd;stroke:#000000;stroke-width:0.25;stroke-linecap:butt;stroke-linejoin:miter;stroke-opacity:1" />
    <polygon
       points="9,9 8,10 2,10 1,9 2,8 8,8 "
       id="g-6-1"
       transform="matrix(1.0470698,0,0,1.0470698,62.555058,25.056511)"
       style="fill:#ff0000;fill-opacity:0.21277101;fill-rule:evenodd;stroke:#000000;stroke-width:0.25;stroke-linecap:butt;stroke-linejoin:miter;stroke-opacity:1" />
    <polygon
       style="fill:#ff0000;fill-opacity:0.21277101;fill-rule:evenodd;stroke:#000000;stroke-width:0.25;stroke-linecap:butt;stroke-linejoin:miter;stroke-opacity:1"
       points="9,1 8,2 2,2 1,1 2,0 8,0 "
       id="a-0-81"
       transform="matrix(1.0470698,0,0,1.0470698,32.479088,48.475441)" />
    <polygon
       style="fill:#ff0000;fill-opacity:0.21277101;fill-rule:evenodd;stroke:#000000;stroke-width:0.25;stroke-linecap:butt;stroke-linejoin:miter;stroke-opacity:1"
       points="9,9 8,8 8,2 9,1 10,2 10,8 "
       id="b-18-0"
       transform="matrix(1.0470698,0,0,1.0470698,32.479088,48.475441)" />
    <polygon
       points="9,17 8,16 8,10 9,9 10,10 10,16 "
       id="c-3-30"
       transform="matrix(1.0470698,0,0,1.0470698,32.479088,48.475441)"
       style="fill:#ff0000;fill-opacity:0.21277101;fill-rule:evenodd;stroke:#000000;stroke-width:0.25;stroke-linecap:butt;stroke-linejoin:miter;stroke-opacity:1" />
    <polygon
       points="1,17 2,16 8,16 9,17 8,18 2,18 "
       id="d-39-71"
       transform="matrix(1.0470698,0,0,1.0470698,32.479088,48.475441)"
       style="fill:#ff0000;fill-opacity:0.21277101;fill-rule:evenodd;stroke:#000000;stroke-width:0.25;stroke-linecap:butt;stroke-linejoin:miter;stroke-opacity:1" />
    <polygon
       points="1,1 2,2 2,8 1,9 0,8 0,2 "
       id="f-91-8"
       transform="matrix(1.0470698,0,0,1.0470698,32.479088,48.475441)"
       style="fill:#ff0000;fill-opacity:0.21277101;fill-rule:evenodd;stroke:#000000;stroke-width:0.25;stroke-linecap:butt;stroke-linejoin:miter;stroke-opacity:1" />
    <polygon
       points="9,9 8,10 2,10 1,9 2,8 8,8 "
       id="g-6-00"
       transform="matrix(1.0470698,0,0,1.0470698,32.479088,48.475441)"
       style="fill:#ff0000;fill-opacity:0.21277101;fill-rule:evenodd;stroke:#000000;stroke-width:0.25;stroke-linecap:butt;stroke-linejoin:miter;stroke-opacity:1" />
    <polygon
       style="fill:#ff0000;fill-opacity:0.21277101;fill-rule:evenodd;stroke:#000000;stroke-width:0.25;stroke-linecap:butt;stroke-linejoin:miter;stroke-opacity:1"
       points="9,9 8,8 8,2 9,1 10,2 10,8 "
       id="b-18-53"
       transform="matrix(1.0470698,0,0,1.0470698,47.530505,48.475441)" />
    <polygon
       points="1,1 2,2 2,8 1,9 0,8 0,2 "
       id="f-91-87"
       transform="matrix(1.0470698,0,0,1.0470698,47.530505,48.475441)"
       style="fill:#ff0000;fill-opacity:0.21277101;fill-rule:evenodd;stroke:#000000;stroke-width:0.25;stroke-linecap:butt;stroke-linejoin:miter;stroke-opacity:1" />
    <polygon
       points="9,9 8,10 2,10 1,9 2,8 8,8 "
       id="g-6-65"
       transform="matrix(1.0470698,0,0,1.0470698,47.530505,48.475441)"
       style="fill:#ff0000;fill-opacity:0.21277101;fill-rule:evenodd;stroke:#000000;stroke-width:0.25;stroke-linecap:butt;stroke-linejoin:miter;stroke-opacity:1" />
    <polygon
       points="1,17 2,16 8,16 9,17 8,18 2,18 "
       id="d-39-4"
       transform="matrix(1.0470698,0,0,1.0470698,32.479088,71.059521)"
       style="fill:#ff0000;fill-opacity:0.21277101;fill-rule:evenodd;stroke:#000000;stroke-width:0.25;stroke-linecap:butt;stroke-linejoin:miter;stroke-opacity:1" />
    <polygon
       points="1,9 2,10 2,16 1,17 0,16 0,10 "
       id="e-80-90"
       transform="matrix(1.0470698,0,0,1.0470698,32.479088,71.059521)"
       style="fill:#ff0000;fill-opacity:0.21277101;fill-rule:evenodd;stroke:#000000;stroke-width:0.25;stroke-linecap:butt;stroke-linejoin:miter;stroke-opacity:1" />
    <polygon
       points="1,1 2,2 2,8 1,9 0,8 0,2 "
       id="f-91-002"
       transform="matrix(1.0470698,0,0,1.0470698,32.479088,71.059521)"
       style="fill:#ff0000;fill-opacity:0.21277101;fill-rule:evenodd;stroke:#000000;stroke-width:0.25;stroke-linecap:butt;stroke-linejoin:miter;stroke-opacity:1" />
    <polygon
       style="fill:#ff0000;fill-opacity:0.21277101;fill-rule:evenodd;stroke:#000000;stroke-width:0.25;stroke-linecap:butt;stroke-linejoin:miter;stroke-opacity:1"
       points="9,1 8,2 2,2 1,1 2,0 8,0 "
       id="a-0-27"
       transform="matrix(1.0470698,0,0,1.0470698,47.530505,71.059521)" />
    <polygon
       points="9,17 8,16 8,10 9,9 10,10 10,16 "
       id="c-3-352"
       transform="matrix(1.0470698,0,0,1.0470698,47.530505,71.059521)"
       style="fill:#ff0000;fill-opacity:0.21277101;fill-rule:evenodd;stroke:#000000;stroke-width:0.25;stroke-linecap:butt;stroke-linejoin:miter;stroke-opacity:1" />
    <polygon
       points="1,17 2,16 8,16 9,17 8,18 2,18 "
       id="d-39-20"
       transform="matrix(1.0470698,0,0,1.0470698,47.530505,71.059521)"
       style="fill:#ff0000;fill-opacity:0.21277101;fill-rule:evenodd;stroke:#000000;stroke-width:0.25;stroke-linecap:butt;stroke-linejoin:miter;stroke-opacity:1" />
    <polygon
       points="1,9 2,10 2,16 1,17 0,16 0,10 "
       id="e-80-87"
       transform="matrix(1.0470698,0,0,1.0470698,47.530505,71.059521)"
       style="fill:#ff0000;fill-opacity:0.21277101;fill-rule:evenodd;stroke:#000000;stroke-width:0.25;stroke-linecap:butt;stroke-linejoin:miter;stroke-opacity:1" />
    <polygon
       points="1,1 2,2 2,8 1,9 0,8 0,2 "
       id="f-91-90"
       transform="matrix(1.0470698,0,0,1.0470698,47.530505,71.059521)"
       style="fill:#ff0000;fill-opacity:0.21277101;fill-rule:evenodd;stroke:#000000;stroke-width:0.25;stroke-linecap:butt;stroke-linejoin:miter;stroke-opacity:1" />
    <path
       inkscape:connector-curvature="0"
       d="m 26.943646,124.27959 -1.04707,-1.04707 v -6.28242 l 1.04707,-1.04707 1.04707,1.04707 v 6.28242 z"
       style="opacity:1;vector-effect:none;fill:#ff0000;fill-opacity:0.21277101;fill-rule:evenodd;stroke:#000000;stroke-width:0.26176745;stroke-linecap:butt;stroke-linejoin:miter;stroke-miterlimit:4;stroke-dasharray:none;stroke-dashoffset:0;stroke-opacity:1"
       id="b-18-9" />
    <path
       inkscape:connector-curvature="0"
       d="m 26.943646,124.27959 -1.04707,1.04707 h -6.282418 l -1.04707,-1.04707 1.04707,-1.04707 h 6.282418 z"
       style="opacity:1;vector-effect:none;fill:#ff0000;fill-opacity:0.21277101;fill-rule:evenodd;stroke:#000000;stroke-width:0.26176745;stroke-linecap:butt;stroke-linejoin:miter;stroke-miterlimit:4;stroke-dasharray:none;stroke-dashoffset:0;stroke-opacity:1"
       id="g-6-92" />
    <path
       inkscape:connector-curvature="0"
       d="m 26.943646,132.65615 -1.04707,-1.04707 v -6.28242 l 1.04707,-1.04707 1.04707,1.04707 v 6.28242 z"
       style="opacity:1;vector-effect:none;fill:#ff0000;fill-opacity:0.21277101;fill-rule:evenodd;stroke:#000000;stroke-width:0.26176745;stroke-linecap:butt;stroke-linejoin:miter;stroke-miterlimit:4;stroke-dasharray:none;stroke-dashoffset:0;stroke-opacity:1"
       id="c-3-99" />
    <path
       inkscape:connector-curvature="0"
       d="m 18.567088,132.65615 1.04707,-1.04707 h 6.282418 l 1.04707,1.04707 -1.04707,1.04707 h -6.282418 z"
       style="opacity:1;vector-effect:none;fill:#ff0000;fill-opacity:0.21277101;fill-rule:evenodd;stroke:#000000;stroke-width:0.26176745;stroke-linecap:butt;stroke-linejoin:miter;stroke-miterlimit:4;stroke-dasharray:none;stroke-dashoffset:0;stroke-opacity:1"
       id="d-39-766" />
    <polygon
       style="fill:#ff0000;fill-opacity:0.21277101;fill-rule:evenodd;stroke:#000000;stroke-width:0.25;stroke-linecap:butt;stroke-linejoin:miter;stroke-opacity:1"
       points="2,2 1,1 2,0 8,0 9,1 8,2 "
       id="a"
       transform="matrix(1.0470698,0,0,1.0470698,2.5470353,2.3430308)" />
    <polygon
       style="fill:#ff0000;fill-opacity:0.21277101;fill-rule:evenodd;stroke:#000000;stroke-width:0.25;stroke-linecap:butt;stroke-linejoin:miter;stroke-opacity:1"
       points="8,2 9,1 10,2 10,8 9,9 8,8 "
       id="b"
       transform="matrix(1.0470698,0,0,1.0470698,2.5470353,2.3430308)" />
    <polygon
       points="8,10 9,9 10,10 10,16 9,17 8,16 "
       id="c"
       transform="matrix(1.0470698,0,0,1.0470698,2.5470353,2.3430308)"
       style="fill:#ff0000;fill-opacity:0.21277101;fill-rule:evenodd;stroke:#000000;stroke-width:0.25;stroke-linecap:butt;stroke-linejoin:miter;stroke-opacity:1" />
    <polygon
       points="8,16 9,17 8,18 2,18 1,17 2,16 "
       id="d"
       transform="matrix(1.0470698,0,0,1.0470698,2.5470353,2.3430308)"
       style="fill:#ff0000;fill-opacity:0.21277101;fill-rule:evenodd;stroke:#000000;stroke-width:0.25;stroke-linecap:butt;stroke-linejoin:miter;stroke-opacity:1" />
    <polygon
       points="2,16 1,17 0,16 0,10 1,9 2,10 "
       id="e"
       transform="matrix(1.0470698,0,0,1.0470698,2.5470353,2.3430308)"
       style="fill:#ff0000;fill-opacity:0.21277101;fill-rule:evenodd;stroke:#000000;stroke-width:0.25;stroke-linecap:butt;stroke-linejoin:miter;stroke-opacity:1" />
    <polygon
       points="2,8 1,9 0,8 0,2 1,1 2,2 "
       id="f"
       transform="matrix(1.0470698,0,0,1.0470698,2.5470353,2.3430308)"
       style="fill:#ff0000;fill-opacity:0.21277101;fill-rule:evenodd;stroke:#000000;stroke-width:0.25;stroke-linecap:butt;stroke-linejoin:miter;stroke-opacity:1" />
    <polygon
       transform="matrix(1.0470698,0,0,1.0470698,17.520018,2.3194073)"
       id="b-2"
       points="9,1 10,2 10,8 9,9 8,8 8,2 "
       style="fill:#ff0000;fill-opacity:0.21277101;fill-rule:evenodd;stroke:#000000;stroke-width:0.25;stroke-linecap:butt;stroke-linejoin:miter;stroke-opacity:1" />
    <polygon
       style="fill:#ff0000;fill-opacity:0.21277101;fill-rule:evenodd;stroke:#000000;stroke-width:0.25;stroke-linecap:butt;stroke-linejoin:miter;stroke-opacity:1"
       transform="matrix(1.0470698,0,0,1.0470698,17.520018,2.3194073)"
       id="c-6"
       points="9,9 10,10 10,16 9,17 8,16 8,10 " />
    <polygon
       style="fill:#ff0000;fill-opacity:0.21277101;fill-rule:evenodd;stroke:#000000;stroke-width:0.25;stroke-linecap:butt;stroke-linejoin:miter;stroke-opacity:1"
       transform="matrix(1.0470698,0,0,1.0470698,17.520018,2.3194073)"
       id="f-3"
       points="1,9 0,8 0,2 1,1 2,2 2,8 " />
    <polygon
       style="fill:#ff0000;fill-opacity:0.21277101;fill-rule:evenodd;stroke:#000000;stroke-width:0.25;stroke-linecap:butt;stroke-linejoin:miter;stroke-opacity:1"
       transform="matrix(1.0470698,0,0,1.0470698,17.520018,2.3194073)"
       id="g-9"
       points="1,9 2,8 8,8 9,9 8,10 2,10 " />
    <polygon
       style="fill:#ff0000;fill-opacity:0.21277101;fill-rule:evenodd;stroke:#000000;stroke-width:0.25;stroke-linecap:butt;stroke-linejoin:miter;stroke-opacity:1"
       points="8,2 9,1 10,2 10,8 9,9 8,8 "
       id="b-18-8"
       transform="matrix(1.0470698,0,0,1.0470698,2.5470353,25.056511)" />
    <polygon
       points="8,10 9,9 10,10 10,16 9,17 8,16 "
       id="c-3-0"
       transform="matrix(1.0470698,0,0,1.0470698,2.5470353,25.056511)"
       style="fill:#ff0000;fill-opacity:0.21277101;fill-rule:evenodd;stroke:#000000;stroke-width:0.25;stroke-linecap:butt;stroke-linejoin:miter;stroke-opacity:1" />
    <polygon
       points="2,8 1,9 0,8 0,2 1,1 2,2 "
       id="f-91-93"
       transform="matrix(1.0470698,0,0,1.0470698,2.5470353,25.056511)"
       style="fill:#ff0000;fill-opacity:0.21277101;fill-rule:evenodd;stroke:#000000;stroke-width:0.25;stroke-linecap:butt;stroke-linejoin:miter;stroke-opacity:1" />
    <polygon
       points="2,10 1,9 2,8 8,8 9,9 8,10 "
       id="g-6-6"
       transform="matrix(1.0470698,0,0,1.0470698,2.5470353,25.056511)"
       style="fill:#ff0000;fill-opacity:0.21277101;fill-rule:evenodd;stroke:#000000;stroke-width:0.25;stroke-linecap:butt;stroke-linejoin:miter;stroke-opacity:1" />
    <polygon
       style="fill:#ff0000;fill-opacity:0.21277101;fill-rule:evenodd;stroke:#000000;stroke-width:0.25;stroke-linecap:butt;stroke-linejoin:miter;stroke-opacity:1"
       points="8,2 9,1 10,2 10,8 9,9 8,8 "
       id="b-18-7"
       transform="matrix(1.0470698,0,0,1.0470698,17.520018,25.056511)" />
    <polygon
       points="8,10 9,9 10,10 10,16 9,17 8,16 "
       id="c-3-6"
       transform="matrix(1.0470698,0,0,1.0470698,17.520018,25.056511)"
       style="fill:#ff0000;fill-opacity:0.21277101;fill-rule:evenodd;stroke:#000000;stroke-width:0.25;stroke-linecap:butt;stroke-linejoin:miter;stroke-opacity:1" />
    <polygon
       style="fill:#ff0000;fill-opacity:0.21277101;fill-rule:evenodd;stroke:#000000;stroke-width:0.25;stroke-linecap:butt;stroke-linejoin:miter;stroke-opacity:1"
       points="2,2 1,1 2,0 8,0 9,1 8,2 "
       id="a-0-67"
       transform="matrix(1.0470698,0,0,1.0470698,2.5470353,48.475441)" />
    <polygon
       style="fill:#ff0000;fill-opacity:0.21277101;fill-rule:evenodd;stroke:#000000;stroke-width:0.25;stroke-linecap:butt;stroke-linejoin:miter;stroke-opacity:1"
       points="8,2 9,1 10,2 10,8 9,9 8,8 "
       id="b-18-3"
       transform="matrix(1.0470698,0,0,1.0470698,2.5470353,48.475441)" />
    <polygon
       points="8,10 9,9 10,10 10,16 9,17 8,16 "
       id="c-3-63"
       transform="matrix(1.0470698,0,0,1.0470698,2.5470353,48.475441)"
       style="fill:#ff0000;fill-opacity:0.21277101;fill-rule:evenodd;stroke:#000000;stroke-width:0.25;stroke-linecap:butt;stroke-linejoin:miter;stroke-opacity:1" />
    <polygon
       points="2,16 1,17 0,16 0,10 1,9 2,10 "
       id="e-80-14"
       transform="matrix(1.0470698,0,0,1.0470698,2.5470353,48.475441)"
       style="fill:#ff0000;fill-opacity:0.21277101;fill-rule:evenodd;stroke:#000000;stroke-width:0.25;stroke-linecap:butt;stroke-linejoin:miter;stroke-opacity:1" />
    <polygon
       points="2,8 1,9 0,8 0,2 1,1 2,2 "
       id="f-91-13"
       transform="matrix(1.0470698,0,0,1.0470698,2.5470353,48.475441)"
       style="fill:#ff0000;fill-opacity:0.21277101;fill-rule:evenodd;stroke:#000000;stroke-width:0.25;stroke-linecap:butt;stroke-linejoin:miter;stroke-opacity:1" />
    <polygon
       points="2,10 1,9 2,8 8,8 9,9 8,10 "
       id="g-6-93"
       transform="matrix(1.0470698,0,0,1.0470698,2.5470353,48.475441)"
       style="fill:#ff0000;fill-opacity:0.21277101;fill-rule:evenodd;stroke:#000000;stroke-width:0.25;stroke-linecap:butt;stroke-linejoin:miter;stroke-opacity:1" />
    <polygon
       points="8,10 9,9 10,10 10,16 9,17 8,16 "
       id="c-3-3"
       transform="matrix(1.0470698,0,0,1.0470698,17.520018,48.475441)"
       style="fill:#ff0000;fill-opacity:0.21277101;fill-rule:evenodd;stroke:#000000;stroke-width:0.25;stroke-linecap:butt;stroke-linejoin:miter;stroke-opacity:1" />
    <polygon
       points="8,16 9,17 8,18 2,18 1,17 2,16 "
       id="d-39-27"
       transform="matrix(1.0470698,0,0,1.0470698,17.520018,48.475441)"
       style="fill:#ff0000;fill-opacity:0.21277101;fill-rule:evenodd;stroke:#000000;stroke-width:0.25;stroke-linecap:butt;stroke-linejoin:miter;stroke-opacity:1" />
    <polygon
       points="2,16 1,17 0,16 0,10 1,9 2,10 "
       id="e-80-16"
       transform="matrix(1.0470698,0,0,1.0470698,17.520018,48.475441)"
       style="fill:#ff0000;fill-opacity:0.21277101;fill-rule:evenodd;stroke:#000000;stroke-width:0.25;stroke-linecap:butt;stroke-linejoin:miter;stroke-opacity:1" />
    <polygon
       points="2,8 1,9 0,8 0,2 1,1 2,2 "
       id="f-91-25"
       transform="matrix(1.0470698,0,0,1.0470698,17.520018,48.475441)"
       style="fill:#ff0000;fill-opacity:0.21277101;fill-rule:evenodd;stroke:#000000;stroke-width:0.25;stroke-linecap:butt;stroke-linejoin:miter;stroke-opacity:1" />
    <polygon
       points="2,10 1,9 2,8 8,8 9,9 8,10 "
       id="g-6-59"
       transform="matrix(1.0470698,0,0,1.0470698,17.520018,48.475441)"
       style="fill:#ff0000;fill-opacity:0.21277101;fill-rule:evenodd;stroke:#000000;stroke-width:0.25;stroke-linecap:butt;stroke-linejoin:miter;stroke-opacity:1" />
    <polygon
       style="fill:#ff0000;fill-opacity:0.21277101;fill-rule:evenodd;stroke:#000000;stroke-width:0.25;stroke-linecap:butt;stroke-linejoin:miter;stroke-opacity:1"
       points="8,2 9,1 10,2 10,8 9,9 8,8 "
       id="b-18-49"
       transform="matrix(1.0470698,0,0,1.0470698,2.5470353,71.059521)" />
    <polygon
       points="8,10 9,9 10,10 10,16 9,17 8,16 "
       id="c-3-07"
       transform="matrix(1.0470698,0,0,1.0470698,2.5470353,71.059521)"
       style="fill:#ff0000;fill-opacity:0.21277101;fill-rule:evenodd;stroke:#000000;stroke-width:0.25;stroke-linecap:butt;stroke-linejoin:miter;stroke-opacity:1" />
    <polygon
       points="2,16 1,17 0,16 0,10 1,9 2,10 "
       id="e-80-3"
       transform="matrix(1.0470698,0,0,1.0470698,2.5470353,71.059521)"
       style="fill:#ff0000;fill-opacity:0.21277101;fill-rule:evenodd;stroke:#000000;stroke-width:0.25;stroke-linecap:butt;stroke-linejoin:miter;stroke-opacity:1" />
    <polygon
       points="2,8 1,9 0,8 0,2 1,1 2,2 "
       id="f-91-0"
       transform="matrix(1.0470698,0,0,1.0470698,2.5470353,71.059521)"
       style="fill:#ff0000;fill-opacity:0.21277101;fill-rule:evenodd;stroke:#000000;stroke-width:0.25;stroke-linecap:butt;stroke-linejoin:miter;stroke-opacity:1" />
    <polygon
       points="2,10 1,9 2,8 8,8 9,9 8,10 "
       id="g-6-63"
       transform="matrix(1.0470698,0,0,1.0470698,2.5470353,71.059521)"
       style="fill:#ff0000;fill-opacity:0.21277101;fill-rule:evenodd;stroke:#000000;stroke-width:0.25;stroke-linecap:butt;stroke-linejoin:miter;stroke-opacity:1" />
    <polygon
       style="fill:#ff0000;fill-opacity:0.21277101;fill-rule:evenodd;stroke:#000000;stroke-width:0.25;stroke-linecap:butt;stroke-linejoin:miter;stroke-opacity:1"
       points="2,2 1,1 2,0 8,0 9,1 8,2 "
       id="a-0-7"
       transform="matrix(1.0470698,0,0,1.0470698,17.520018,71.059521)" />
    <polygon
       points="8,16 9,17 8,18 2,18 1,17 2,16 "
       id="d-39-89"
       transform="matrix(1.0470698,0,0,1.0470698,17.520018,71.059521)"
       style="fill:#ff0000;fill-opacity:0.21277101;fill-rule:evenodd;stroke:#000000;stroke-width:0.25;stroke-linecap:butt;stroke-linejoin:miter;stroke-opacity:1" />
    <polygon
       points="2,16 1,17 0,16 0,10 1,9 2,10 "
       id="e-80-55"
       transform="matrix(1.0470698,0,0,1.0470698,17.520018,71.059521)"
       style="fill:#ff0000;fill-opacity:0.21277101;fill-rule:evenodd;stroke:#000000;stroke-width:0.25;stroke-linecap:butt;stroke-linejoin:miter;stroke-opacity:1" />
    <polygon
       points="2,8 1,9 0,8 0,2 1,1 2,2 "
       id="f-91-92"
       transform="matrix(1.0470698,0,0,1.0470698,17.520018,71.059521)"
       style="fill:#ff0000;fill-opacity:0.21277101;fill-rule:evenodd;stroke:#000000;stroke-width:0.25;stroke-linecap:butt;stroke-linejoin:miter;stroke-opacity:1" />
    <polygon
       points="2,10 1,9 2,8 8,8 9,9 8,10 "
       id="g-6-38"
       transform="matrix(1.0470698,0,0,1.0470698,17.520018,71.059521)"
       style="fill:#ff0000;fill-opacity:0.21277101;fill-rule:evenodd;stroke:#000000;stroke-width:0.25;stroke-linecap:butt;stroke-linejoin:miter;stroke-opacity:1" />
    <polygon
       points="2,16 1,17 0,16 0,10 1,9 2,10 "
       id="e-80-4"
       transform="matrix(1.0470698,0,0,1.0470698,2.5470353,93.218371)"
       style="fill:#ff0000;fill-opacity:0.21277101;fill-rule:evenodd;stroke:#000000;stroke-width:0.25;stroke-linecap:butt;stroke-linejoin:miter;stroke-opacity:1" />
    <polygon
       points="2,10 1,9 2,8 8,8 9,9 8,10 "
       id="g-6-62"
       transform="matrix(1.0470698,0,0,1.0470698,2.5470353,93.218371)"
       style="fill:#ff0000;fill-opacity:0.21277101;fill-rule:evenodd;stroke:#000000;stroke-width:0.25;stroke-linecap:butt;stroke-linejoin:miter;stroke-opacity:1" />
    <polygon
       style="fill:#ff0000;fill-opacity:0.21277101;fill-rule:evenodd;stroke:#000000;stroke-width:0.25;stroke-linecap:butt;stroke-linejoin:miter;stroke-opacity:1"
       points="2,2 1,1 2,0 8,0 9,1 8,2 "
       id="a-0-956"
       transform="matrix(1.0470698,0,0,1.0470698,2.5470353,114.85596)" />
    <polygon
       style="fill:#ff0000;fill-opacity:0.21277101;fill-rule:evenodd;stroke:#000000;stroke-width:0.25;stroke-linecap:butt;stroke-linejoin:miter;stroke-opacity:1"
       points="8,2 9,1 10,2 10,8 9,9 8,8 "
       id="b-18-575"
       transform="matrix(1.0470698,0,0,1.0470698,2.5470353,114.85596)" />
    <polygon
       points="2,16 1,17 0,16 0,10 1,9 2,10 "
       id="e-80-67"
       transform="matrix(1.0470698,0,0,1.0470698,2.5470353,114.85596)"
       style="fill:#ff0000;fill-opacity:0.21277101;fill-rule:evenodd;stroke:#000000;stroke-width:0.25;stroke-linecap:butt;stroke-linejoin:miter;stroke-opacity:1" />
    <polygon
       points="2,8 1,9 0,8 0,2 1,1 2,2 "
       id="f-91-58"
       transform="matrix(1.0470698,0,0,1.0470698,2.5470353,114.85596)"
       style="fill:#ff0000;fill-opacity:0.21277101;fill-rule:evenodd;stroke:#000000;stroke-width:0.25;stroke-linecap:butt;stroke-linejoin:miter;stroke-opacity:1" />
    <polygon
       points="2,10 1,9 2,8 8,8 9,9 8,10 "
       id="g-6-7"
       transform="matrix(1.0470698,0,0,1.0470698,2.5470353,114.85596)"
       style="fill:#ff0000;fill-opacity:0.21277101;fill-rule:evenodd;stroke:#000000;stroke-width:0.25;stroke-linecap:butt;stroke-linejoin:miter;stroke-opacity:1" />
    <polygon
       style="fill:#ff0000;fill-opacity:0.21277101;fill-rule:evenodd;stroke:#000000;stroke-width:0.25;stroke-linecap:butt;stroke-linejoin:miter;stroke-opacity:1"
       points="2,2 1,1 2,0 8,0 9,1 8,2 "
       id="a-0-52"
       transform="matrix(1.0470698,0,0,1.0470698,17.520018,93.218371)" />
    <polygon
       style="fill:#ff0000;fill-opacity:0.21277101;fill-rule:evenodd;stroke:#000000;stroke-width:0.25;stroke-linecap:butt;stroke-linejoin:miter;stroke-opacity:1"
       points="8,2 9,1 10,2 10,8 9,9 8,8 "
       id="b-18-65"
       transform="matrix(1.0470698,0,0,1.0470698,17.520018,93.218371)" />
    <polygon
       points="8,10 9,9 10,10 10,16 9,17 8,16 "
       id="c-3-54"
       transform="matrix(1.0470698,0,0,1.0470698,17.520018,93.218371)"
       style="fill:#ff0000;fill-opacity:0.21277101;fill-rule:evenodd;stroke:#000000;stroke-width:0.25;stroke-linecap:butt;stroke-linejoin:miter;stroke-opacity:1" />
    <path
       inkscape:connector-curvature="0"
       d="m 26.943646,115.90303 -1.04707,1.04707 h -6.282418 l -1.04707,-1.04707 1.04707,-1.04707 h 6.282418 z"
       style="opacity:1;vector-effect:none;fill:#ff0000;fill-opacity:0.21277101;fill-rule:evenodd;stroke:#000000;stroke-width:0.26176745;stroke-linecap:butt;stroke-linejoin:miter;stroke-miterlimit:4;stroke-dasharray:none;stroke-dashoffset:0;stroke-opacity:1"
       id="a-0-2" />
    <path
       inkscape:connector-curvature="0"
       d="m 18.567088,124.27959 1.04707,1.04707 v 6.28242 l -1.04707,1.04707 -1.04707,-1.04707 v -6.28242 z"
       style="opacity:1;vector-effect:none;fill:#ff0000;fill-opacity:0.21277101;fill-rule:evenodd;stroke:#000000;stroke-width:0.26176745;stroke-linecap:butt;stroke-linejoin:miter;stroke-miterlimit:4;stroke-dasharray:none;stroke-dashoffset:0;stroke-opacity:1"
       id="e-80-23" />
    <path
       inkscape:connector-curvature="0"
       d="m 18.567088,115.90303 1.04707,1.04707 v 6.28242 l -1.04707,1.04707 -1.04707,-1.04707 v -6.28242 z"
       style="opacity:1;vector-effect:none;fill:#ff0000;fill-opacity:0.21277101;fill-rule:evenodd;stroke:#000000;stroke-width:0.26176745;stroke-linecap:butt;stroke-linejoin:miter;stroke-miterlimit:4;stroke-dasharray:none;stroke-dashoffset:0;stroke-opacity:1"
       id="f-91-67" />
    <polygon
       style="fill:#ff0000;fill-opacity:0.21277101;fill-rule:evenodd;stroke:#000000;stroke-width:0.25;stroke-linecap:butt;stroke-linejoin:miter;stroke-opacity:1"
       points="2,2 1,1 2,0 8,0 9,1 8,2 "
       id="a-0-07"
       transform="matrix(1.0470698,0,0,1.0470698,167.44436,93.218371)" />
    <polygon
       points="2,8 1,9 0,8 0,2 1,1 2,2 "
       id="f-91-3"
       transform="matrix(1.0470698,0,0,1.0470698,167.44436,93.218371)"
       style="fill:#ff0000;fill-opacity:0.21277101;fill-rule:evenodd;stroke:#000000;stroke-width:0.25;stroke-linecap:butt;stroke-linejoin:miter;stroke-opacity:1" />
    <polygon
       style="fill:#ff0000;fill-opacity:0.21277101;fill-rule:evenodd;stroke:#000000;stroke-width:0.25;stroke-linecap:butt;stroke-linejoin:miter;stroke-opacity:1"
       points="2,2 1,1 2,0 8,0 9,1 8,2 "
       id="a-0-22"
       transform="matrix(1.0470698,0,0,1.0470698,182.87946,114.85596)" />
    <polygon
       style="fill:#ff0000;fill-opacity:0.21277101;fill-rule:evenodd;stroke:#000000;stroke-width:0.25;stroke-linecap:butt;stroke-linejoin:miter;stroke-opacity:1"
       points="8,2 9,1 10,2 10,8 9,9 8,8 "
       id="b-18-19"
       transform="matrix(1.0470698,0,0,1.0470698,182.87946,114.85596)" />
    <polygon
       points="8,10 9,9 10,10 10,16 9,17 8,16 "
       id="c-3-69"
       transform="matrix(1.0470698,0,0,1.0470698,182.87946,114.85596)"
       style="fill:#ff0000;fill-opacity:0.21277101;fill-rule:evenodd;stroke:#000000;stroke-width:0.25;stroke-linecap:butt;stroke-linejoin:miter;stroke-opacity:1" />
    <polygon
       points="8,16 9,17 8,18 2,18 1,17 2,16 "
       id="d-39-5"
       transform="matrix(1.0470698,0,0,1.0470698,182.87946,114.85596)"
       style="fill:#ff0000;fill-opacity:0.21277101;fill-rule:evenodd;stroke:#000000;stroke-width:0.25;stroke-linecap:butt;stroke-linejoin:miter;stroke-opacity:1" />
    <polygon
       points="2,8 1,9 0,8 0,2 1,1 2,2 "
       id="f-91-73"
       transform="matrix(1.0470698,0,0,1.0470698,182.87946,114.85596)"
       style="fill:#ff0000;fill-opacity:0.21277101;fill-rule:evenodd;stroke:#000000;stroke-width:0.25;stroke-linecap:butt;stroke-linejoin:miter;stroke-opacity:1" />
    <polygon
       points="2,10 1,9 2,8 8,8 9,9 8,10 "
       id="g-6-30"
       transform="matrix(1.0470698,0,0,1.0470698,182.87946,114.85596)"
       style="fill:#ff0000;fill-opacity:0.21277101;fill-rule:evenodd;stroke:#000000;stroke-width:0.25;stroke-linecap:butt;stroke-linejoin:miter;stroke-opacity:1" />
    <polygon
       style="fill:#ff0000;fill-opacity:0.21277101;fill-rule:evenodd;stroke:#000000;stroke-width:0.25;stroke-linecap:butt;stroke-linejoin:miter;stroke-opacity:1"
       points="2,2 1,1 2,0 8,0 9,1 8,2 "
       id="a-0-62"
       transform="matrix(1.0470698,0,0,1.0470698,182.54508,93.218371)" />
    <polygon
       points="8,10 9,9 10,10 10,16 9,17 8,16 "
       id="c-3-05"
       transform="matrix(1.0470698,0,0,1.0470698,182.54508,93.218371)"
       style="fill:#ff0000;fill-opacity:0.21277101;fill-rule:evenodd;stroke:#000000;stroke-width:0.25;stroke-linecap:butt;stroke-linejoin:miter;stroke-opacity:1" />
    <polygon
       points="8,16 9,17 8,18 2,18 1,17 2,16 "
       id="d-39-08"
       transform="matrix(1.0470698,0,0,1.0470698,182.54508,93.218371)"
       style="fill:#ff0000;fill-opacity:0.21277101;fill-rule:evenodd;stroke:#000000;stroke-width:0.25;stroke-linecap:butt;stroke-linejoin:miter;stroke-opacity:1" />
    <polygon
       points="2,8 1,9 0,8 0,2 1,1 2,2 "
       id="f-91-131"
       transform="matrix(1.0470698,0,0,1.0470698,182.54508,93.218371)"
       style="fill:#ff0000;fill-opacity:0.21277101;fill-rule:evenodd;stroke:#000000;stroke-width:0.25;stroke-linecap:butt;stroke-linejoin:miter;stroke-opacity:1" />
    <polygon
       points="2,10 1,9 2,8 8,8 9,9 8,10 "
       id="g-6-25"
       transform="matrix(1.0470698,0,0,1.0470698,182.54508,93.218371)"
       style="fill:#ff0000;fill-opacity:0.21277101;fill-rule:evenodd;stroke:#000000;stroke-width:0.25;stroke-linecap:butt;stroke-linejoin:miter;stroke-opacity:1" />
    <polygon
       style="fill:#ff0000;fill-opacity:0.21277101;fill-rule:evenodd;stroke:#000000;stroke-width:0.25;stroke-linecap:butt;stroke-linejoin:miter;stroke-opacity:1"
       points="2,2 1,1 2,0 8,0 9,1 8,2 "
       id="a-0-896"
       transform="matrix(1.0470698,0,0,1.0470698,197.57899,93.218371)" />
    <polygon
       style="fill:#ff0000;fill-opacity:0.21277101;fill-rule:evenodd;stroke:#000000;stroke-width:0.25;stroke-linecap:butt;stroke-linejoin:miter;stroke-opacity:1"
       points="8,2 9,1 10,2 10,8 9,9 8,8 "
       id="b-18-037"
       transform="matrix(1.0470698,0,0,1.0470698,197.57899,93.218371)" />
    <polygon
       points="8,10 9,9 10,10 10,16 9,17 8,16 "
       id="c-3-91"
       transform="matrix(1.0470698,0,0,1.0470698,197.57899,93.218371)"
       style="fill:#ff0000;fill-opacity:0.21277101;fill-rule:evenodd;stroke:#000000;stroke-width:0.25;stroke-linecap:butt;stroke-linejoin:miter;stroke-opacity:1" />
    <polygon
       points="8,16 9,17 8,18 2,18 1,17 2,16 "
       id="d-39-96"
       transform="matrix(1.0470698,0,0,1.0470698,197.57899,93.218371)"
       style="fill:#ff0000;fill-opacity:0.21277101;fill-rule:evenodd;stroke:#000000;stroke-width:0.25;stroke-linecap:butt;stroke-linejoin:miter;stroke-opacity:1" />
    <polygon
       points="2,10 1,9 2,8 8,8 9,9 8,10 "
       id="g-6-05"
       transform="matrix(1.0470698,0,0,1.0470698,197.57899,93.218371)"
       style="fill:#ff0000;fill-opacity:0.21277101;fill-rule:evenodd;stroke:#000000;stroke-width:0.25;stroke-linecap:butt;stroke-linejoin:miter;stroke-opacity:1" />
    <polygon
       style="fill:#ff0000;fill-opacity:0.21277101;fill-rule:evenodd;stroke:#000000;stroke-width:0.25;stroke-linecap:butt;stroke-linejoin:miter;stroke-opacity:1"
       points="9,1 10,2 10,8 9,9 8,8 8,2 "
       id="b-18-80"
       transform="matrix(1.0470698,0,0,1.0470698,197.57899,114.85596)" />
    <polygon
       points="9,9 10,10 10,16 9,17 8,16 8,10 "
       id="c-3-45"
       transform="matrix(1.0470698,0,0,1.0470698,197.57899,114.85596)"
       style="fill:#ff0000;fill-opacity:0.21277101;fill-rule:evenodd;stroke:#000000;stroke-width:0.25;stroke-linecap:butt;stroke-linejoin:miter;stroke-opacity:1" />
    <polygon
       points="1,9 0,8 0,2 1,1 2,2 2,8 "
       id="f-91-07"
       transform="matrix(1.0470698,0,0,1.0470698,197.57899,114.85596)"
       style="fill:#ff0000;fill-opacity:0.21277101;fill-rule:evenodd;stroke:#000000;stroke-width:0.25;stroke-linecap:butt;stroke-linejoin:miter;stroke-opacity:1" />
    <polygon
       points="1,9 2,8 8,8 9,9 8,10 2,10 "
       id="g-6-96"
       transform="matrix(1.0470698,0,0,1.0470698,197.57899,114.85596)"
       style="fill:#ff0000;fill-opacity:0.21277101;fill-rule:evenodd;stroke:#000000;stroke-width:0.25;stroke-linecap:butt;stroke-linejoin:miter;stroke-opacity:1" />
    <path
       id="a-0-2-0"
       style="opacity:1;vector-effect:none;fill:#ff0000;fill-opacity:0.21277101;fill-rule:evenodd;stroke:#000000;stroke-width:0.261767;stroke-linecap:butt;stroke-linejoin:miter;stroke-miterlimit:4;stroke-dasharray:none;stroke-dashoffset:0;stroke-opacity:1"
       d="m 86.864968,26.103571 -1.04707,1.04707 h -6.282416 l -1.04707,-1.04707 1.04707,-1.04707 h 6.282416 z"
       inkscape:connector-curvature="0" />
    <path
       inkscape:connector-curvature="0"
       id="f-91-67-3"
       style="opacity:1;vector-effect:none;fill:#ff0000;fill-opacity:0.21277101;fill-rule:evenodd;stroke:#000000;stroke-width:0.261767;stroke-linecap:butt;stroke-linejoin:miter;stroke-miterlimit:4;stroke-dasharray:none;stroke-dashoffset:0;stroke-opacity:1"
       d="m 78.488412,26.103571 1.04707,1.047069 v 6.282419 l -1.04707,1.04707 -1.04707,-1.04707 V 27.15064 Z" />
    <path
       id="d-39-766-9"
       style="opacity:1;vector-effect:none;fill:#ff0000;fill-opacity:0.21277101;fill-rule:evenodd;stroke:#000000;stroke-width:0.261767;stroke-linecap:butt;stroke-linejoin:miter;stroke-miterlimit:4;stroke-dasharray:none;stroke-dashoffset:0;stroke-opacity:1"
       d="m 33.526157,111.01855 1.04707,-1.04707 h 6.282418 l 1.04707,1.04707 -1.04707,1.04707 h -6.282418 z"
       inkscape:connector-curvature="0" />
    <path
       sodipodi:nodetypes="cccczccccc"
       inkscape:connector-curvature="0"
       id="path9649"
       d="m 25.531958,134.74258 c 3.931676,-13.5893 10.461971,-24.27768 21.57043,-33.5399 7.386276,-5.935409 23.201182,-9.406028 23.201182,-9.406028 -10.21261,-4.054377 -8.140569,-22.854498 -1.123478,-39.837333 9.30832,-17.47919 15.161659,-31.532537 32.112548,-31.382702 16.95089,0.149828 26.36153,16.931657 31.95122,29.068988 8.32635,18.494855 14.34118,27.374901 1.58278,40.261155 9.58813,1.753146 17.19625,4.355083 25.41392,9.385854 13.13453,11.381446 17.54793,19.301586 22.6389,35.216106 -52.41603,-0.44094 -104.946409,0.93513 -157.347502,0.23386 z"
       style="fill:#000000;stroke:#5e5e5e;stroke-width:1.79999995;stroke-linecap:butt;stroke-linejoin:miter;stroke-miterlimit:4;stroke-dasharray:none;stroke-opacity:1" />
    <rect
       y="97.068275"
       x="16.526144"
       height="3.7876065"
       width="4.5162144"
       id="rect10891-7"
       style="fill:#2f434e;fill-opacity:1;stroke:none;stroke-width:0.341236;stroke-linecap:round;stroke-linejoin:round;stroke-miterlimit:4;stroke-dasharray:none;stroke-opacity:1"
       transform="rotate(-45.848528)" />
    <rect
       transform="matrix(-0.69655765,-0.71750083,-0.71750083,0.69655765,0,0)"
       style="fill:#2f434e;fill-opacity:1;stroke:none;stroke-width:0.341236;stroke-linecap:round;stroke-linejoin:round;stroke-miterlimit:4;stroke-dasharray:none;stroke-opacity:1"
       id="rect10891-7-0"
       width="4.5162144"
       height="3.7876065"
       x="-126.5404"
       y="-50.08321" />
    <path
       sodipodi:nodetypes="ccccc"
       inkscape:connector-curvature="0"
       d="m 128.94971,52.307716 -4.43586,-4.258846 -4.21411,4.228323 4.19962,4.424211 z"
       style="fill:#142223;fill-opacity:1;stroke:#142223;stroke-width:0.35517699;stroke-linecap:round;stroke-linejoin:round;stroke-miterlimit:4;stroke-dasharray:none;stroke-opacity:1"
       id="rect10889-3-7" />
    <path
       inkscape:connector-curvature="0"
       id="path10879"
       style="fill:none;fill-opacity:1;stroke:#23292e;stroke-width:1.49079001;stroke-linecap:round;stroke-miterlimit:4;stroke-dasharray:none;stroke-opacity:1"
       d="m 102.71633,40.863737 c -2.17054,0.02098 -4.33272,0.07024 -6.431258,0.307277 a 6.2852835,6.3343869 0 0 0 6.154278,5.050662 6.2852835,6.3343869 0 0 0 6.16148,-5.085282 c -1.90413,-0.234189 -3.87504,-0.301818 -5.8845,-0.272657 z" />
    <path
       inkscape:connector-curvature="0"
       id="rect10889"
       style="fill:#142223;fill-opacity:1;stroke:#142223;stroke-width:0.41410699;stroke-linecap:round;stroke-linejoin:round;stroke-miterlimit:4;stroke-dasharray:none;stroke-opacity:1"
       d="m 103.31502,40.813244 c -0.28725,0.0044 -0.49579,0.01994 -0.59869,0.05052 -0.33459,1.18e-4 -2.33577,0.05089 -4.20527,0.158686 v 1.687883 h 7.85657 V 40.95898 c -1.18781,-0.08564 -2.36509,-0.156427 -3.05261,-0.145709 z" />
    <rect
       style="fill:#2f434e;fill-opacity:1;stroke:none;stroke-width:0.43281099;stroke-linecap:round;stroke-linejoin:round;stroke-miterlimit:4;stroke-dasharray:none;stroke-opacity:1"
       id="rect10891"
       width="4.5162144"
       height="6.0932717"
       x="100.26953"
       y="42.710873" />
    <ellipse
       style="fill:#969696;fill-opacity:0.43693704;stroke:#22292a;stroke-width:3.72697997;stroke-linecap:round;stroke-miterlimit:4;stroke-dasharray:none;stroke-opacity:1"
       id="path10304"
       cx="102.53294"
       cy="74.297165"
       rx="24.545561"
       ry="24.513458" />
    <rect
       y="90.975471"
       x="16.758793"
       height="6.5376916"
       width="6.1000457"
       id="rect10889-3"
       style="fill:#142223;fill-opacity:1;stroke:#142223;stroke-width:0.35522199;stroke-linecap:round;stroke-linejoin:round;stroke-miterlimit:4;stroke-dasharray:none;stroke-opacity:1"
       transform="matrix(0.68845855,-0.72527569,0.70963045,0.70457407,0,0)"
       ry="0" />
    <path
       style="fill:#c63f3c;fill-opacity:0.47833802;stroke:#000000;stroke-width:0.0219132px;stroke-linecap:butt;stroke-linejoin:miter;stroke-opacity:1"
       d="m 102.43895,53.024293 v 21.468499 l 21.46211,0.0012 c -0.26507,-7.549941 -3.20178,-11.905048 -6.27039,-14.903876 -3.10579,-3.035153 -8.12788,-6.541142 -15.19172,-6.56584 z"
       id="path10893"
       inkscape:connector-curvature="0"
       sodipodi:nodetypes="cccsc" />
    <ellipse
       style="fill:#010000;fill-opacity:1;stroke:#000000;stroke-width:0.82821399;stroke-linecap:round;stroke-linejoin:round;stroke-miterlimit:4;stroke-dasharray:none;stroke-opacity:1"
       id="path11034"
       cx="102.47088"
       cy="74.499008"
       rx="2.7957261"
       ry="2.8575935" />
    <path
       style="fill:#010000;fill-opacity:1;stroke:#000000;stroke-width:0.82821399;stroke-linecap:round;stroke-linejoin:miter;stroke-miterlimit:4;stroke-dasharray:none;stroke-opacity:1"
       d="m 102.43895,53.391967 -0.005,3.784645"
       id="path10895-5-9"
       inkscape:connector-curvature="0" />
    <path
       style="fill:#010000;fill-opacity:1;stroke:#000000;stroke-width:0.82821399;stroke-linecap:round;stroke-linejoin:miter;stroke-miterlimit:4;stroke-dasharray:none;stroke-opacity:1"
       d="m 107.93644,54.122068 -0.97113,3.657934"
       id="path10895"
       inkscape:connector-curvature="0" />
    <path
       inkscape:connector-curvature="0"
       id="path10895-5"
       d="m 97.008707,54.111412 0.971131,3.657934"
       style="fill:#010000;fill-opacity:1;stroke:#000000;stroke-width:0.82821399;stroke-linecap:round;stroke-linejoin:miter;stroke-miterlimit:4;stroke-dasharray:none;stroke-opacity:1" />
    <path
       inkscape:connector-curvature="0"
       id="path10895-9"
       d="m 113.0252,56.230919 -1.88998,3.278954"
       style="fill:#010000;fill-opacity:1;stroke:#000000;stroke-width:0.82821399;stroke-linecap:round;stroke-linejoin:miter;stroke-miterlimit:4;stroke-dasharray:none;stroke-opacity:1" />
    <path
       style="fill:#010000;fill-opacity:1;stroke:#000000;stroke-width:0.82821399;stroke-linecap:round;stroke-linejoin:miter;stroke-miterlimit:4;stroke-dasharray:none;stroke-opacity:1"
       d="m 91.900805,56.213211 1.889982,3.278955"
       id="path10895-9-2"
       inkscape:connector-curvature="0" />
    <path
       style="fill:#010000;fill-opacity:1;stroke:#000000;stroke-width:0.82821399;stroke-linecap:round;stroke-linejoin:miter;stroke-miterlimit:4;stroke-dasharray:none;stroke-opacity:1"
       d="m 117.40292,59.586354 -2.68179,2.670497"
       id="path10895-9-1"
       inkscape:connector-curvature="0" />
    <path
       inkscape:connector-curvature="0"
       id="path10895-9-1-4"
       d="m 87.553632,59.588375 2.681795,2.6705"
       style="fill:#010000;fill-opacity:1;stroke:#000000;stroke-width:0.82821399;stroke-linecap:round;stroke-linejoin:miter;stroke-miterlimit:4;stroke-dasharray:none;stroke-opacity:1" />
    <path
       inkscape:connector-curvature="0"
       id="path10895-9-1-7"
       d="m 120.77132,63.944437 -3.28162,1.885359"
       style="fill:#010000;fill-opacity:1;stroke:#000000;stroke-width:0.82821399;stroke-linecap:round;stroke-linejoin:miter;stroke-miterlimit:4;stroke-dasharray:none;stroke-opacity:1" />
    <path
       style="fill:#010000;fill-opacity:1;stroke:#000000;stroke-width:0.82821399;stroke-linecap:round;stroke-linejoin:miter;stroke-miterlimit:4;stroke-dasharray:none;stroke-opacity:1"
       d="m 84.205424,63.966782 3.281615,1.885355"
       id="path10895-9-1-7-0"
       inkscape:connector-curvature="0" />
    <path
       style="fill:#010000;fill-opacity:1;stroke:#000000;stroke-width:0.82821399;stroke-linecap:round;stroke-linejoin:miter;stroke-miterlimit:4;stroke-dasharray:none;stroke-opacity:1"
       d="m 122.87959,69.048749 -3.66413,0.947466"
       id="path10895-9-1-7-3"
       inkscape:connector-curvature="0" />
    <path
       inkscape:connector-curvature="0"
       id="path10895-9-1-7-3-9"
       d="m 82.090122,69.056663 3.664134,0.947466"
       style="fill:#010000;fill-opacity:1;stroke:#000000;stroke-width:0.82821399;stroke-linecap:round;stroke-linejoin:miter;stroke-miterlimit:4;stroke-dasharray:none;stroke-opacity:1" />
    <path
       inkscape:connector-curvature="0"
       id="path10895-5-9-0"
       d="m 123.56863,74.501335 -3.78465,-0.0053"
       style="fill:#010000;fill-opacity:1;stroke:#000000;stroke-width:0.82821399;stroke-linecap:round;stroke-linejoin:miter;stroke-miterlimit:4;stroke-dasharray:none;stroke-opacity:1" />
    <path
       inkscape:connector-curvature="0"
       id="path10895-9-1-7-3-1"
       d="m 122.8466,79.938165 -3.66019,-0.962597"
       style="fill:#010000;fill-opacity:1;stroke:#000000;stroke-width:0.82821399;stroke-linecap:round;stroke-linejoin:miter;stroke-miterlimit:4;stroke-dasharray:none;stroke-opacity:1" />
    <path
       style="fill:#010000;fill-opacity:1;stroke:#000000;stroke-width:0.82821399;stroke-linecap:round;stroke-linejoin:miter;stroke-miterlimit:4;stroke-dasharray:none;stroke-opacity:1"
       d="m 117.48184,83.176986 3.28162,1.885359"
       id="path10895-9-1-7-39"
       inkscape:connector-curvature="0" />
    <path
       inkscape:connector-curvature="0"
       id="path10895-9-1-1"
       d="m 117.4011,89.429211 -2.68179,-2.6705"
       style="fill:#010000;fill-opacity:1;stroke:#000000;stroke-width:0.82821399;stroke-linecap:round;stroke-linejoin:miter;stroke-miterlimit:4;stroke-dasharray:none;stroke-opacity:1" />
    <path
       style="fill:#010000;fill-opacity:1;stroke:#000000;stroke-width:0.82821399;stroke-linecap:round;stroke-linejoin:miter;stroke-miterlimit:4;stroke-dasharray:none;stroke-opacity:1"
       d="m 113.02259,92.791829 -1.88998,-3.278955"
       id="path10895-9-8"
       inkscape:connector-curvature="0" />
    <path
       inkscape:connector-curvature="0"
       id="path10895-6"
       d="M 107.92648,94.865304 106.95534,91.20737"
       style="fill:#010000;fill-opacity:1;stroke:#000000;stroke-width:0.82821399;stroke-linecap:round;stroke-linejoin:miter;stroke-miterlimit:4;stroke-dasharray:none;stroke-opacity:1" />
    <path
       style="fill:#010000;fill-opacity:1;stroke:#000000;stroke-width:0.82821399;stroke-linecap:round;stroke-linejoin:miter;stroke-miterlimit:4;stroke-dasharray:none;stroke-opacity:1"
       d="m 85.160832,74.498035 -3.784645,-0.0053"
       id="path10895-5-9-0-9"
       inkscape:connector-curvature="0" />
    <path
       style="fill:#010000;fill-opacity:1;stroke:#000000;stroke-width:0.82821399;stroke-linecap:round;stroke-linejoin:miter;stroke-miterlimit:4;stroke-dasharray:none;stroke-opacity:1"
       d="m 82.102377,79.945741 3.664135,-0.947465"
       id="path10895-9-1-7-3-9-7"
       inkscape:connector-curvature="0" />
    <path
       inkscape:connector-curvature="0"
       id="path10895-9-1-7-0-0"
       d="m 84.190333,85.040347 3.281615,-1.885359"
       style="fill:#010000;fill-opacity:1;stroke:#000000;stroke-width:0.82821399;stroke-linecap:round;stroke-linejoin:miter;stroke-miterlimit:4;stroke-dasharray:none;stroke-opacity:1" />
    <path
       style="fill:#010000;fill-opacity:1;stroke:#000000;stroke-width:0.82821399;stroke-linecap:round;stroke-linejoin:miter;stroke-miterlimit:4;stroke-dasharray:none;stroke-opacity:1"
       d="m 87.555608,89.414211 2.681795,-2.6705"
       id="path10895-9-1-4-1"
       inkscape:connector-curvature="0" />
    <path
       style="fill:#010000;fill-opacity:1;stroke:#000000;stroke-width:0.82821399;stroke-linecap:round;stroke-linejoin:miter;stroke-miterlimit:4;stroke-dasharray:none;stroke-opacity:1"
       d="m 97.007443,94.909605 0.97113,-3.657934"
       id="path10895-6-7"
       inkscape:connector-curvature="0" />
    <path
       inkscape:connector-curvature="0"
       id="path10895-9-8-4"
       d="m 91.931296,92.77901 1.889982,-3.278955"
       style="fill:#010000;fill-opacity:1;stroke:#000000;stroke-width:0.82821399;stroke-linecap:round;stroke-linejoin:miter;stroke-miterlimit:4;stroke-dasharray:none;stroke-opacity:1" />
    <path
       inkscape:connector-curvature="0"
       id="path10895-5-9-0-9-5"
       d="m 102.47348,91.827465 -0.005,3.784645"
       style="fill:#010000;fill-opacity:1;stroke:#000000;stroke-width:0.82821399;stroke-linecap:round;stroke-linejoin:miter;stroke-miterlimit:4;stroke-dasharray:none;stroke-opacity:1" />
    <path
       sodipodi:nodetypes="ccczccccc"
       inkscape:connector-curvature="0"
       id="path10214"
       d="m 74.882869,90.610047 c 4.346493,2.119434 6.425365,2.71223 13.60441,5.858052 7.249359,4.363771 10.993562,10.220741 13.951671,14.902971 3.68257,-4.96594 9.08285,-11.32706 15.70723,-15.048607 6.62438,-3.72155 13.46538,-6.144341 16.48368,-10.444997 6.00611,-9.070944 3.62071,-17.672464 0.27596,-24.444088 C 126.29503,47.225482 116.04367,40.8821 102.71633,40.863735 88.935902,40.54055 77.535836,46.027546 70.146003,62.240327 c -4.263913,9.434042 -5.305155,22.549252 4.736866,28.36972 z"
       style="fill:none;stroke:#5e5e5e;stroke-width:1.79999995;stroke-linecap:butt;stroke-linejoin:miter;stroke-miterlimit:4;stroke-dasharray:none;stroke-opacity:1" />
    <text
       transform="scale(1.0316774,0.96929523)"
       style="font-style:normal;font-variant:normal;font-weight:bold;font-stretch:normal;font-size:16.37866783px;line-height:1.25;font-family:'URW Bookman L';-inkscape-font-specification:'URW Bookman L Bold';font-variant-ligatures:normal;font-variant-caps:normal;font-variant-numeric:normal;white-space:pre;shape-inside:url(#rect11649);fill:#1a1a1a;fill-opacity:1;stroke:none;stroke-width:1.54759562"
       id="text11647"
       xml:space="preserve"
       x="-32.917908"
       y="-67.546379"><tspan
         id="tspan5096"
         y="0"
         x="0"
         sodipodi:role="line"
         style="stroke-width:1.54759562"><tspan
           id="tspan5094"
           style="stroke-width:1.54759562">DARKTIMERS</tspan></tspan></text>
    <path
       id="b-18-9-3"
       style="opacity:1;vector-effect:none;fill:#ff0000;fill-opacity:0.21277101;fill-rule:evenodd;stroke:#000000;stroke-width:0.261767;stroke-linecap:butt;stroke-linejoin:miter;stroke-miterlimit:4;stroke-dasharray:none;stroke-dashoffset:0;stroke-opacity:1"
       d="m 41.902715,102.64199 -1.04707,-1.04707 V 95.3125 l 1.04707,-1.04707 1.04707,1.04707 v 6.28242 z"
       inkscape:connector-curvature="0" />
    <path
       id="g-6-92-0"
       style="opacity:1;vector-effect:none;fill:#ff0000;fill-opacity:0.21277101;fill-rule:evenodd;stroke:#000000;stroke-width:0.261767;stroke-linecap:butt;stroke-linejoin:miter;stroke-miterlimit:4;stroke-dasharray:none;stroke-dashoffset:0;stroke-opacity:1"
       d="m 41.902715,102.64199 -1.04707,1.04707 h -6.282418 l -1.04707,-1.04707 1.04707,-1.04707 h 6.282418 z"
       inkscape:connector-curvature="0" />
    <path
       id="a-0-2-1"
       style="opacity:1;vector-effect:none;fill:#ff0000;fill-opacity:0.21277101;fill-rule:evenodd;stroke:#000000;stroke-width:0.261767;stroke-linecap:butt;stroke-linejoin:miter;stroke-miterlimit:4;stroke-dasharray:none;stroke-dashoffset:0;stroke-opacity:1"
       d="m 41.902715,94.26543 -1.04707,1.04707 h -6.282418 l -1.04707,-1.04707 1.04707,-1.04707 h 6.282418 z"
       inkscape:connector-curvature="0" />
    <path
       id="e-80-23-0"
       style="opacity:1;vector-effect:none;fill:#ff0000;fill-opacity:0.21277101;fill-rule:evenodd;stroke:#000000;stroke-width:0.261767;stroke-linecap:butt;stroke-linejoin:miter;stroke-miterlimit:4;stroke-dasharray:none;stroke-dashoffset:0;stroke-opacity:1"
       d="m 33.526157,102.64199 1.04707,1.04707 v 6.28242 l -1.04707,1.04707 -1.04707,-1.04707 v -6.28242 z"
       inkscape:connector-curvature="0" />
  </g>
</svg>
